               Name     State Notes          User  Tags                   Created  Runtime  Sweep  ...  pred_horizon  loss  test_loss  train_loss  valid_loss  Epoch  best_train_loss  best_valid_loss
0   gentle-bird-818  finished     -  bizoffermark   NaN  2023-05-03T21:06:08.000Z      116    NaN  ...             1   NaN   1.099774    0.375075    1.413368  114.0         0.368927         1.179664
1   hopeful-fog-817  finished     -  bizoffermark   NaN  2023-05-03T21:04:15.000Z      110    NaN  ...             1   NaN   0.042554    0.209350    1.941128  101.0         1.656970         0.041200
2   clean-brook-816  finished     -  bizoffermark   NaN  2023-05-03T21:01:52.000Z      141    NaN  ...             1   NaN   0.042573    0.192294    1.982713  101.0         0.994415         0.041323
3    swift-wave-815  finished     -  bizoffermark   NaN  2023-05-03T20:59:38.000Z      132    NaN  ...             1   NaN   0.042569    1.000326    0.041358  130.0         1.000227         0.041318
4  serene-disco-814  finished     -  bizoffermark   NaN  2023-05-03T20:58:20.000Z       76    NaN  ...             1   NaN   1.111613    0.459800    1.267719  101.0         1.317357         1.110121
[5 rows x 38 columns]
['comic-paper-561' 'young-sound-562' 'elated-lion-546' 'efficient-fog-514'
 'cosmic-spaceship-132']
obs_min [ -3.1415868  -28.509308    -0.36998382  -0.57978904]
obs_max [ 3.141587   27.927465    0.11000546  0.6240026 ]
action_min [-0.7]
action_max [0.7]
(4,)
(20, 1)
(4,)
(1,)
x_next of dynamics_fn:  Traced<ShapedArray(float32[4])>with<DynamicJaxprTrace(level=4/0)>
(4,)
(1,)
x_next of dynamics_fn:  Traced<ShapedArray(float32[4])>with<DynamicJaxprTrace(level=2/0)>