{
    "os": "Linux-5.15.0-56-generic-x86_64-with-glibc2.35",
    "python": "3.10.9",
    "heartbeatAt": "2023-05-04T13:08:32.634762",
    "startedAt": "2023-05-04T13:08:31.814418",
    "docker": null,
    "cuda": null,
    "args": [],
    "state": "running",
    "program": "/home/honam/workspace/ode/pyur5/include/pyur5/plot.py",
    "codePath": "include/pyur5/plot.py",
    "git": {
        "remote": "git@gitlab.ethz.ch:honam/pyur5.git",
        "commit": "fa4b1f7cf3e257554c9814b4d18930505d555c6a"
    },
    "email": "bizoffermark@gmail.com",
    "root": "/home/honam/workspace/ode/pyur5",
    "host": "safari-proxy",
    "username": "honam",
    "executable": "/home/honam/anaconda3/envs/ode/bin/python",
    "cpu_count": 24,
    "cpu_count_logical": 48,
    "cpu_freq": {
        "current": 1.324104166666667,
        "min": 1000.0,
        "max": 3200.0
    },
    "cpu_freq_per_core": [
        {
            "current": 1.0,
            "min": 1000.0,
            "max": 3200.0
        },
        {
            "current": 1.0,
            "min": 1000.0,
            "max": 3200.0
        },
        {
            "current": 1.0,
            "min": 1000.0,
            "max": 3200.0
        },
        {
            "current": 2.1,
            "min": 1000.0,
            "max": 3200.0
        },
        {
            "current": 1.0,
            "min": 1000.0,
            "max": 3200.0
        },
        {
            "current": 1.0,
            "min": 1000.0,
            "max": 3200.0
        },
        {
            "current": 1.0,
            "min": 1000.0,
            "max": 3200.0
        },
        {
            "current": 1.1,
            "min": 1000.0,
            "max": 3200.0
        },
        {
            "current": 1.0,
            "min": 1000.0,
            "max": 3200.0
        },
        {
            "current": 1.0,
            "min": 1000.0,
            "max": 3200.0
        },
        {
            "current": 1.0,
            "min": 1000.0,
            "max": 3200.0
        },
        {
            "current": 1.0,
            "min": 1000.0,
            "max": 3200.0
        },
        {
            "current": 1.0,
            "min": 1000.0,
            "max": 3200.0
        },
        {
            "current": 1.5,
            "min": 1000.0,
            "max": 3200.0
        },
        {
            "current": 1.0,
            "min": 1000.0,
            "max": 3200.0
        },
        {
            "current": 1.0,
            "min": 1000.0,
            "max": 3200.0
        },
        {
            "current": 1.0,
            "min": 1000.0,
            "max": 3200.0
        },
        {
            "current": 2.1,
            "min": 1000.0,
            "max": 3200.0
        },
        {
            "current": 1.0,
            "min": 1000.0,
            "max": 3200.0
        },
        {
            "current": 2.1,
            "min": 1000.0,
            "max": 3200.0
        },
        {
            "current": 1.0,
            "min": 1000.0,
            "max": 3200.0
        },
        {
            "current": 2.1,
            "min": 1000.0,
            "max": 3200.0
        },
        {
            "current": 1.0,
            "min": 1000.0,
            "max": 3200.0
        },
        {
            "current": 1.0,
            "min": 1000.0,
            "max": 3200.0
        },
        {
            "current": 1.0,
            "min": 1000.0,
            "max": 3200.0
        },
        {
            "current": 2.1,
            "min": 1000.0,
            "max": 3200.0
        },
        {
            "current": 3.2,
            "min": 1000.0,
            "max": 3200.0
        },
        {
            "current": 2.1,
            "min": 1000.0,
            "max": 3200.0
        },
        {
            "current": 1.0,
            "min": 1000.0,
            "max": 3200.0
        },
        {
            "current": 1.0,
            "min": 1000.0,
            "max": 3200.0
        },
        {
            "current": 1.0,
            "min": 1000.0,
            "max": 3200.0
        },
        {
            "current": 1.0,
            "min": 1000.0,
            "max": 3200.0
        },
        {
            "current": 1.0,
            "min": 1000.0,
            "max": 3200.0
        },
        {
            "current": 1.0,
            "min": 1000.0,
            "max": 3200.0
        },
        {
            "current": 1.0,
            "min": 1000.0,
            "max": 3200.0
        },
        {
            "current": 3.2,
            "min": 1000.0,
            "max": 3200.0
        },
        {
            "current": 1.0,
            "min": 1000.0,
            "max": 3200.0
        },
        {
            "current": 2.0,
            "min": 1000.0,
            "max": 3200.0
        },
        {
            "current": 1.0,
            "min": 1000.0,
            "max": 3200.0
        },
        {
            "current": 1.0,
            "min": 1000.0,
            "max": 3200.0
        },
        {
            "current": 1.0,
            "min": 1000.0,
            "max": 3200.0
        },
        {
            "current": 1.0,
            "min": 1000.0,
            "max": 3200.0
        },
        {
            "current": 1.0,
            "min": 1000.0,
            "max": 3200.0
        },
        {
            "current": 2.1,
            "min": 1000.0,
            "max": 3200.0
        },
        {
            "current": 1.0,
            "min": 1000.0,
            "max": 3200.0
        },
        {
            "current": 1.0,
            "min": 1000.0,
            "max": 3200.0
        },
        {
            "current": 1.0,
            "min": 1000.0,
            "max": 3200.0
        },
        {
            "current": 1.7,
            "min": 1000.0,
            "max": 3200.0
        }
    ],
    "disk": {
        "total": 878.1531105041504,
        "used": 219.67662811279297
    },
    "memory": {
        "total": 187.47517776489258
    }
}
