{
    "os": "Linux-5.15.0-60-generic-x86_64-with-glibc2.35",
    "python": "3.10.9",
    "heartbeatAt": "2023-05-14T14:32:52.705432",
    "startedAt": "2023-05-14T14:32:51.960475",
    "docker": null,
    "cuda": null,
    "args": [],
    "state": "running",
    "program": "/home/honam/workspace/ode/pyur5/include/pyur5/tests/ensemble_test_sim.py",
    "codePath": "include/pyur5/tests/ensemble_test_sim.py",
    "git": {
        "remote": "git@gitlab.ethz.ch:honam/pyur5.git",
        "commit": "80e27ddfee4d17e22b11d88098cbe9994f400225"
    },
    "email": "bizoffermark@gmail.com",
    "root": "/home/honam/workspace/ode/pyur5",
    "host": "safari-gpu1",
    "username": "honam",
    "executable": "/home/honam/anaconda3/envs/ode/bin/python3",
    "cpu_count": 16,
    "cpu_count_logical": 24,
    "cpu_freq": {
        "current": 3.4188750000000003,
        "min": 800.0,
        "max": 4950.0
    },
    "cpu_freq_per_core": [
        {
            "current": 3.853,
            "min": 800.0,
            "max": 5300.0
        },
        {
            "current": 3.4,
            "min": 800.0,
            "max": 5300.0
        },
        {
            "current": 3.4,
            "min": 800.0,
            "max": 5300.0
        },
        {
            "current": 3.4,
            "min": 800.0,
            "max": 5300.0
        },
        {
            "current": 3.4,
            "min": 800.0,
            "max": 5300.0
        },
        {
            "current": 3.4,
            "min": 800.0,
            "max": 5300.0
        },
        {
            "current": 3.4,
            "min": 800.0,
            "max": 5300.0
        },
        {
            "current": 3.4,
            "min": 800.0,
            "max": 5300.0
        },
        {
            "current": 3.4,
            "min": 800.0,
            "max": 5400.0
        },
        {
            "current": 3.4,
            "min": 800.0,
            "max": 5400.0
        },
        {
            "current": 3.4,
            "min": 800.0,
            "max": 5400.0
        },
        {
            "current": 3.4,
            "min": 800.0,
            "max": 5400.0
        },
        {
            "current": 3.4,
            "min": 800.0,
            "max": 5300.0
        },
        {
            "current": 3.4,
            "min": 800.0,
            "max": 5300.0
        },
        {
            "current": 3.4,
            "min": 800.0,
            "max": 5300.0
        },
        {
            "current": 3.4,
            "min": 800.0,
            "max": 5300.0
        },
        {
            "current": 3.4,
            "min": 800.0,
            "max": 4200.0
        },
        {
            "current": 3.4,
            "min": 800.0,
            "max": 4200.0
        },
        {
            "current": 3.4,
            "min": 800.0,
            "max": 4200.0
        },
        {
            "current": 3.4,
            "min": 800.0,
            "max": 4200.0
        },
        {
            "current": 3.4,
            "min": 800.0,
            "max": 4200.0
        },
        {
            "current": 3.4,
            "min": 800.0,
            "max": 4200.0
        },
        {
            "current": 3.4,
            "min": 800.0,
            "max": 4200.0
        },
        {
            "current": 3.4,
            "min": 800.0,
            "max": 4200.0
        }
    ],
    "disk": {
        "total": 914.7823104858398,
        "used": 48.49640655517578
    },
    "gpu": "NVIDIA RTX A6000",
    "gpu_count": 1,
    "gpu_devices": [
        {
            "name": "NVIDIA RTX A6000",
            "memory_total": 51527024640
        }
    ],
    "memory": {
        "total": 125.57927322387695
    }
}
