2023-05-04 15:02:43,914 INFO    StreamThr :2114594 [internal.py:wandb_internal():86] W&B internal server running at pid: 2114594, started at: 2023-05-04 15:02:43.913731
2023-05-04 15:02:43,916 DEBUG   HandlerThread:2114594 [handler.py:handle_request():144] handle_request: status
2023-05-04 15:02:43,960 INFO    WriterThread:2114594 [datastore.py:open_for_write():85] open: /home/honam/workspace/ode/pyur5/include/pyur5/wandb/run-20230504_150243-bbvc4hgg/run-bbvc4hgg.wandb
2023-05-04 15:02:43,961 DEBUG   SenderThread:2114594 [sender.py:send():375] send: header
2023-05-04 15:02:43,980 DEBUG   SenderThread:2114594 [sender.py:send():375] send: run
2023-05-04 15:02:44,480 INFO    SenderThread:2114594 [dir_watcher.py:__init__():219] watching files in: /home/honam/workspace/ode/pyur5/include/pyur5/wandb/run-20230504_150243-bbvc4hgg/files
2023-05-04 15:02:44,480 INFO    SenderThread:2114594 [sender.py:_start_run_threads():1124] run started: bbvc4hgg with start time 1683205363.926713
2023-05-04 15:02:44,481 DEBUG   SenderThread:2114594 [sender.py:send_request():402] send_request: summary_record
2023-05-04 15:02:44,482 INFO    SenderThread:2114594 [sender.py:_save_file():1378] saving file wandb-summary.json with policy end
2023-05-04 15:02:44,483 DEBUG   HandlerThread:2114594 [handler.py:handle_request():144] handle_request: check_version
2023-05-04 15:02:44,483 DEBUG   SenderThread:2114594 [sender.py:send_request():402] send_request: check_version
2023-05-04 15:02:44,643 DEBUG   HandlerThread:2114594 [handler.py:handle_request():144] handle_request: run_start
2023-05-04 15:02:44,646 DEBUG   HandlerThread:2114594 [system_info.py:__init__():31] System info init
2023-05-04 15:02:44,647 DEBUG   HandlerThread:2114594 [system_info.py:__init__():46] System info init done
2023-05-04 15:02:44,647 INFO    HandlerThread:2114594 [system_monitor.py:start():181] Starting system monitor
2023-05-04 15:02:44,647 INFO    SystemMonitor:2114594 [system_monitor.py:_start():145] Starting system asset monitoring threads
2023-05-04 15:02:44,647 INFO    HandlerThread:2114594 [system_monitor.py:probe():201] Collecting system info
2023-05-04 15:02:44,648 INFO    SystemMonitor:2114594 [interfaces.py:start():190] Started cpu monitoring
2023-05-04 15:02:44,648 INFO    SystemMonitor:2114594 [interfaces.py:start():190] Started disk monitoring
2023-05-04 15:02:44,649 INFO    SystemMonitor:2114594 [interfaces.py:start():190] Started memory monitoring
2023-05-04 15:02:44,650 INFO    SystemMonitor:2114594 [interfaces.py:start():190] Started network monitoring
2023-05-04 15:02:44,700 DEBUG   HandlerThread:2114594 [system_info.py:probe():195] Probing system
2023-05-04 15:02:44,704 DEBUG   HandlerThread:2114594 [system_info.py:_probe_git():180] Probing git
2023-05-04 15:02:44,725 DEBUG   HandlerThread:2114594 [system_info.py:_probe_git():188] Probing git done
2023-05-04 15:02:44,726 DEBUG   HandlerThread:2114594 [system_info.py:probe():240] Probing system done
2023-05-04 15:02:44,726 DEBUG   HandlerThread:2114594 [system_monitor.py:probe():210] {'os': 'Linux-5.15.0-56-generic-x86_64-with-glibc2.35', 'python': '3.10.9', 'heartbeatAt': '2023-05-04T13:02:44.701015', 'startedAt': '2023-05-04T13:02:43.873786', 'docker': None, 'cuda': None, 'args': (), 'state': 'running', 'program': '/home/honam/workspace/ode/pyur5/include/pyur5/plot.py', 'codePath': 'include/pyur5/plot.py', 'git': {'remote': 'git@gitlab.ethz.ch:honam/pyur5.git', 'commit': 'fa4b1f7cf3e257554c9814b4d18930505d555c6a'}, 'email': 'bizoffermark@gmail.com', 'root': '/home/honam/workspace/ode/pyur5', 'host': 'safari-proxy', 'username': 'honam', 'executable': '/home/honam/anaconda3/envs/ode/bin/python', 'cpu_count': 24, 'cpu_count_logical': 48, 'cpu_freq': {'current': 1.3058750000000003, 'min': 1000.0, 'max': 3200.0}, 'cpu_freq_per_core': [{'current': 2.1, 'min': 1000.0, 'max': 3200.0}, {'current': 1.0, 'min': 1000.0, 'max': 3200.0}, {'current': 2.1, 'min': 1000.0, 'max': 3200.0}, {'current': 1.3, 'min': 1000.0, 'max': 3200.0}, {'current': 1.0, 'min': 1000.0, 'max': 3200.0}, {'current': 1.0, 'min': 1000.0, 'max': 3200.0}, {'current': 1.0, 'min': 1000.0, 'max': 3200.0}, {'current': 2.1, 'min': 1000.0, 'max': 3200.0}, {'current': 1.0, 'min': 1000.0, 'max': 3200.0}, {'current': 1.0, 'min': 1000.0, 'max': 3200.0}, {'current': 1.0, 'min': 1000.0, 'max': 3200.0}, {'current': 1.0, 'min': 1000.0, 'max': 3200.0}, {'current': 1.0, 'min': 1000.0, 'max': 3200.0}, {'current': 1.0, 'min': 1000.0, 'max': 3200.0}, {'current': 1.0, 'min': 1000.0, 'max': 3200.0}, {'current': 1.0, 'min': 1000.0, 'max': 3200.0}, {'current': 1.0, 'min': 1000.0, 'max': 3200.0}, {'current': 1.0, 'min': 1000.0, 'max': 3200.0}, {'current': 1.0, 'min': 1000.0, 'max': 3200.0}, {'current': 1.0, 'min': 1000.0, 'max': 3200.0}, {'current': 1.0, 'min': 1000.0, 'max': 3200.0}, {'current': 2.8, 'min': 1000.0, 'max': 3200.0}, {'current': 1.0, 'min': 1000.0, 'max': 3200.0}, {'current': 2.1, 'min': 1000.0, 'max': 3200.0}, {'current': 1.0, 'min': 1000.0, 'max': 3200.0}, {'current': 2.7, 'min': 1000.0, 'max': 3200.0}, {'current': 1.0, 'min': 1000.0, 'max': 3200.0}, {'current': 2.1, 'min': 1000.0, 'max': 3200.0}, {'current': 1.0, 'min': 1000.0, 'max': 3200.0}, {'current': 1.0, 'min': 1000.0, 'max': 3200.0}, {'current': 1.0, 'min': 1000.0, 'max': 3200.0}, {'current': 2.1, 'min': 1000.0, 'max': 3200.0}, {'current': 1.0, 'min': 1000.0, 'max': 3200.0}, {'current': 1.0, 'min': 1000.0, 'max': 3200.0}, {'current': 1.0, 'min': 1000.0, 'max': 3200.0}, {'current': 1.0, 'min': 1000.0, 'max': 3200.0}, {'current': 1.0, 'min': 1000.0, 'max': 3200.0}, {'current': 1.0, 'min': 1000.0, 'max': 3200.0}, {'current': 1.0, 'min': 1000.0, 'max': 3200.0}, {'current': 2.2, 'min': 1000.0, 'max': 3200.0}, {'current': 1.0, 'min': 1000.0, 'max': 3200.0}, {'current': 1.0, 'min': 1000.0, 'max': 3200.0}, {'current': 1.0, 'min': 1000.0, 'max': 3200.0}, {'current': 1.0, 'min': 1000.0, 'max': 3200.0}, {'current': 2.1, 'min': 1000.0, 'max': 3200.0}, {'current': 1.0, 'min': 1000.0, 'max': 3200.0}, {'current': 2.1, 'min': 1000.0, 'max': 3200.0}, {'current': 2.1, 'min': 1000.0, 'max': 3200.0}], 'disk': {'total': 878.1531105041504, 'used': 219.6765899658203}, 'memory': {'total': 187.47517776489258}}
2023-05-04 15:02:44,726 INFO    HandlerThread:2114594 [system_monitor.py:probe():211] Finished collecting system info
2023-05-04 15:02:44,726 INFO    HandlerThread:2114594 [system_monitor.py:probe():214] Publishing system info
2023-05-04 15:02:44,726 DEBUG   HandlerThread:2114594 [system_info.py:_save_pip():51] Saving list of pip packages installed into the current environment
2023-05-04 15:02:44,728 DEBUG   HandlerThread:2114594 [system_info.py:_save_pip():67] Saving pip packages done
2023-05-04 15:02:44,728 DEBUG   HandlerThread:2114594 [system_info.py:_save_conda():74] Saving list of conda packages installed into the current environment
2023-05-04 15:02:45,484 INFO    Thread-12 :2114594 [dir_watcher.py:_on_file_created():278] file/dir created: /home/honam/workspace/ode/pyur5/include/pyur5/wandb/run-20230504_150243-bbvc4hgg/files/requirements.txt
2023-05-04 15:02:45,485 INFO    Thread-12 :2114594 [dir_watcher.py:_on_file_created():278] file/dir created: /home/honam/workspace/ode/pyur5/include/pyur5/wandb/run-20230504_150243-bbvc4hgg/files/wandb-summary.json
2023-05-04 15:02:45,485 INFO    Thread-12 :2114594 [dir_watcher.py:_on_file_created():278] file/dir created: /home/honam/workspace/ode/pyur5/include/pyur5/wandb/run-20230504_150243-bbvc4hgg/files/conda-environment.yaml
2023-05-04 15:03:12,502 INFO    Thread-12 :2114594 [dir_watcher.py:_on_file_modified():295] file/dir modified: /home/honam/workspace/ode/pyur5/include/pyur5/wandb/run-20230504_150243-bbvc4hgg/files/conda-environment.yaml
2023-05-04 15:03:12,627 DEBUG   HandlerThread:2114594 [system_info.py:_save_conda():86] Saving conda packages done
2023-05-04 15:03:12,630 INFO    HandlerThread:2114594 [system_monitor.py:probe():216] Finished publishing system info
2023-05-04 15:03:12,646 DEBUG   HandlerThread:2114594 [handler.py:handle_request():144] handle_request: status_report
2023-05-04 15:03:12,647 DEBUG   HandlerThread:2114594 [handler.py:handle_request():144] handle_request: keepalive
2023-05-04 15:03:12,647 DEBUG   HandlerThread:2114594 [handler.py:handle_request():144] handle_request: status_report
2023-05-04 15:03:12,648 DEBUG   HandlerThread:2114594 [handler.py:handle_request():144] handle_request: keepalive
2023-05-04 15:03:12,648 DEBUG   HandlerThread:2114594 [handler.py:handle_request():144] handle_request: status_report
2023-05-04 15:03:12,648 DEBUG   HandlerThread:2114594 [handler.py:handle_request():144] handle_request: keepalive
2023-05-04 15:03:12,648 DEBUG   HandlerThread:2114594 [handler.py:handle_request():144] handle_request: status_report
2023-05-04 15:03:12,649 DEBUG   HandlerThread:2114594 [handler.py:handle_request():144] handle_request: keepalive
2023-05-04 15:03:12,649 DEBUG   HandlerThread:2114594 [handler.py:handle_request():144] handle_request: status_report
2023-05-04 15:03:12,649 DEBUG   HandlerThread:2114594 [handler.py:handle_request():144] handle_request: keepalive
2023-05-04 15:03:12,650 DEBUG   SenderThread:2114594 [sender.py:send():375] send: files
2023-05-04 15:03:12,650 INFO    SenderThread:2114594 [sender.py:_save_file():1378] saving file wandb-metadata.json with policy now
2023-05-04 15:03:12,676 DEBUG   HandlerThread:2114594 [handler.py:handle_request():144] handle_request: stop_status
2023-05-04 15:03:12,676 DEBUG   SenderThread:2114594 [sender.py:send_request():402] send_request: stop_status
2023-05-04 15:03:12,932 DEBUG   SenderThread:2114594 [sender.py:send():375] send: telemetry
2023-05-04 15:03:13,162 INFO    wandb-upload_0:2114594 [upload_job.py:push():137] Uploaded file /tmp/tmpuf2qdx7awandb/l2ktetkz-wandb-metadata.json
2023-05-04 15:03:13,503 INFO    Thread-12 :2114594 [dir_watcher.py:_on_file_created():278] file/dir created: /home/honam/workspace/ode/pyur5/include/pyur5/wandb/run-20230504_150243-bbvc4hgg/files/wandb-metadata.json
2023-05-04 15:03:13,504 INFO    Thread-12 :2114594 [dir_watcher.py:_on_file_created():278] file/dir created: /home/honam/workspace/ode/pyur5/include/pyur5/wandb/run-20230504_150243-bbvc4hgg/files/output.log
2023-05-04 15:03:15,489 DEBUG   HandlerThread:2114594 [handler.py:handle_request():144] handle_request: status_report
2023-05-04 15:03:15,507 INFO    Thread-12 :2114594 [dir_watcher.py:_on_file_modified():295] file/dir modified: /home/honam/workspace/ode/pyur5/include/pyur5/wandb/run-20230504_150243-bbvc4hgg/files/output.log
2023-05-04 15:03:16,509 INFO    Thread-12 :2114594 [dir_watcher.py:_on_file_modified():295] file/dir modified: /home/honam/workspace/ode/pyur5/include/pyur5/wandb/run-20230504_150243-bbvc4hgg/files/config.yaml
2023-05-04 15:03:20,701 DEBUG   HandlerThread:2114594 [handler.py:handle_request():144] handle_request: status_report
2023-05-04 15:03:25,702 DEBUG   HandlerThread:2114594 [handler.py:handle_request():144] handle_request: status_report
2023-05-04 15:03:27,675 DEBUG   HandlerThread:2114594 [handler.py:handle_request():144] handle_request: stop_status
2023-05-04 15:03:27,676 DEBUG   SenderThread:2114594 [sender.py:send_request():402] send_request: stop_status
2023-05-04 15:03:28,163 DEBUG   SenderThread:2114594 [sender.py:send():375] send: files
2023-05-04 15:03:28,163 INFO    SenderThread:2114594 [sender.py:_save_file():1378] saving file media/images/plot_0_a8731e0516bca4e528d1.png with policy now
2023-05-04 15:03:28,163 DEBUG   HandlerThread:2114594 [handler.py:handle_request():144] handle_request: partial_history
2023-05-04 15:03:28,169 DEBUG   SenderThread:2114594 [sender.py:send():375] send: history
2023-05-04 15:03:28,170 DEBUG   SenderThread:2114594 [sender.py:send_request():402] send_request: summary_record
2023-05-04 15:03:28,176 INFO    SenderThread:2114594 [sender.py:_save_file():1378] saving file wandb-summary.json with policy end
2023-05-04 15:03:28,176 DEBUG   SenderThread:2114594 [sender.py:send():375] send: telemetry
2023-05-04 15:03:28,177 DEBUG   SenderThread:2114594 [sender.py:send():375] send: exit
2023-05-04 15:03:28,177 INFO    SenderThread:2114594 [sender.py:send_exit():598] handling exit code: 0
2023-05-04 15:03:28,177 INFO    SenderThread:2114594 [sender.py:send_exit():600] handling runtime: 43
2023-05-04 15:03:28,188 INFO    SenderThread:2114594 [sender.py:_save_file():1378] saving file wandb-summary.json with policy end
2023-05-04 15:03:28,189 INFO    SenderThread:2114594 [sender.py:send_exit():606] send defer
2023-05-04 15:03:28,190 DEBUG   HandlerThread:2114594 [handler.py:handle_request():144] handle_request: defer
2023-05-04 15:03:28,190 INFO    HandlerThread:2114594 [handler.py:handle_request_defer():170] handle defer: 0
2023-05-04 15:03:28,191 DEBUG   SenderThread:2114594 [sender.py:send_request():402] send_request: defer
2023-05-04 15:03:28,191 INFO    SenderThread:2114594 [sender.py:send_request_defer():622] handle sender defer: 0
2023-05-04 15:03:28,191 INFO    SenderThread:2114594 [sender.py:transition_state():626] send defer: 1
2023-05-04 15:03:28,191 DEBUG   HandlerThread:2114594 [handler.py:handle_request():144] handle_request: defer
2023-05-04 15:03:28,191 INFO    HandlerThread:2114594 [handler.py:handle_request_defer():170] handle defer: 1
2023-05-04 15:03:28,192 DEBUG   SenderThread:2114594 [sender.py:send_request():402] send_request: defer
2023-05-04 15:03:28,192 INFO    SenderThread:2114594 [sender.py:send_request_defer():622] handle sender defer: 1
2023-05-04 15:03:28,192 INFO    SenderThread:2114594 [sender.py:transition_state():626] send defer: 2
2023-05-04 15:03:28,193 DEBUG   HandlerThread:2114594 [handler.py:handle_request():144] handle_request: defer
2023-05-04 15:03:28,193 INFO    HandlerThread:2114594 [handler.py:handle_request_defer():170] handle defer: 2
2023-05-04 15:03:28,193 INFO    HandlerThread:2114594 [system_monitor.py:finish():190] Stopping system monitor
2023-05-04 15:03:28,193 DEBUG   SystemMonitor:2114594 [system_monitor.py:_start():159] Starting system metrics aggregation loop
2023-05-04 15:03:28,194 DEBUG   SystemMonitor:2114594 [system_monitor.py:_start():166] Finished system metrics aggregation loop
2023-05-04 15:03:28,194 DEBUG   SystemMonitor:2114594 [system_monitor.py:_start():170] Publishing last batch of metrics
2023-05-04 15:03:28,196 INFO    HandlerThread:2114594 [interfaces.py:finish():202] Joined cpu monitor
2023-05-04 15:03:28,196 INFO    HandlerThread:2114594 [interfaces.py:finish():202] Joined disk monitor
2023-05-04 15:03:28,196 INFO    HandlerThread:2114594 [interfaces.py:finish():202] Joined memory monitor
2023-05-04 15:03:28,197 INFO    HandlerThread:2114594 [interfaces.py:finish():202] Joined network monitor
2023-05-04 15:03:28,198 DEBUG   SenderThread:2114594 [sender.py:send_request():402] send_request: defer
2023-05-04 15:03:28,198 INFO    SenderThread:2114594 [sender.py:send_request_defer():622] handle sender defer: 2
2023-05-04 15:03:28,198 INFO    SenderThread:2114594 [sender.py:transition_state():626] send defer: 3
2023-05-04 15:03:28,199 DEBUG   SenderThread:2114594 [sender.py:send():375] send: stats
2023-05-04 15:03:28,199 DEBUG   HandlerThread:2114594 [handler.py:handle_request():144] handle_request: defer
2023-05-04 15:03:28,200 INFO    HandlerThread:2114594 [handler.py:handle_request_defer():170] handle defer: 3
2023-05-04 15:03:28,201 DEBUG   SenderThread:2114594 [sender.py:send_request():402] send_request: defer
2023-05-04 15:03:28,201 INFO    SenderThread:2114594 [sender.py:send_request_defer():622] handle sender defer: 3
2023-05-04 15:03:28,201 INFO    SenderThread:2114594 [sender.py:transition_state():626] send defer: 4
2023-05-04 15:03:28,202 DEBUG   HandlerThread:2114594 [handler.py:handle_request():144] handle_request: defer
2023-05-04 15:03:28,202 INFO    HandlerThread:2114594 [handler.py:handle_request_defer():170] handle defer: 4
2023-05-04 15:03:28,202 DEBUG   SenderThread:2114594 [sender.py:send_request():402] send_request: defer
2023-05-04 15:03:28,202 INFO    SenderThread:2114594 [sender.py:send_request_defer():622] handle sender defer: 4
2023-05-04 15:03:28,202 INFO    SenderThread:2114594 [sender.py:transition_state():626] send defer: 5
2023-05-04 15:03:28,203 DEBUG   HandlerThread:2114594 [handler.py:handle_request():144] handle_request: defer
2023-05-04 15:03:28,203 INFO    HandlerThread:2114594 [handler.py:handle_request_defer():170] handle defer: 5
2023-05-04 15:03:28,204 DEBUG   SenderThread:2114594 [sender.py:send():375] send: summary
2023-05-04 15:03:28,206 INFO    SenderThread:2114594 [sender.py:_save_file():1378] saving file wandb-summary.json with policy end
2023-05-04 15:03:28,206 DEBUG   SenderThread:2114594 [sender.py:send_request():402] send_request: defer
2023-05-04 15:03:28,206 INFO    SenderThread:2114594 [sender.py:send_request_defer():622] handle sender defer: 5
2023-05-04 15:03:28,206 INFO    SenderThread:2114594 [sender.py:transition_state():626] send defer: 6
2023-05-04 15:03:28,207 DEBUG   HandlerThread:2114594 [handler.py:handle_request():144] handle_request: defer
2023-05-04 15:03:28,207 INFO    HandlerThread:2114594 [handler.py:handle_request_defer():170] handle defer: 6
2023-05-04 15:03:28,207 DEBUG   SenderThread:2114594 [sender.py:send_request():402] send_request: defer
2023-05-04 15:03:28,208 INFO    SenderThread:2114594 [sender.py:send_request_defer():622] handle sender defer: 6
2023-05-04 15:03:28,213 DEBUG   HandlerThread:2114594 [handler.py:handle_request():144] handle_request: status_report
2023-05-04 15:03:28,426 INFO    SenderThread:2114594 [sender.py:transition_state():626] send defer: 7
2023-05-04 15:03:28,426 DEBUG   HandlerThread:2114594 [handler.py:handle_request():144] handle_request: defer
2023-05-04 15:03:28,427 INFO    HandlerThread:2114594 [handler.py:handle_request_defer():170] handle defer: 7
2023-05-04 15:03:28,427 DEBUG   SenderThread:2114594 [sender.py:send_request():402] send_request: defer
2023-05-04 15:03:28,427 INFO    SenderThread:2114594 [sender.py:send_request_defer():622] handle sender defer: 7
2023-05-04 15:03:28,521 INFO    Thread-12 :2114594 [dir_watcher.py:_on_file_modified():295] file/dir modified: /home/honam/workspace/ode/pyur5/include/pyur5/wandb/run-20230504_150243-bbvc4hgg/files/wandb-summary.json
2023-05-04 15:03:28,522 INFO    Thread-12 :2114594 [dir_watcher.py:_on_file_modified():295] file/dir modified: /home/honam/workspace/ode/pyur5/include/pyur5/wandb/run-20230504_150243-bbvc4hgg/files/config.yaml
2023-05-04 15:03:28,522 INFO    Thread-12 :2114594 [dir_watcher.py:_on_file_created():278] file/dir created: /home/honam/workspace/ode/pyur5/include/pyur5/wandb/run-20230504_150243-bbvc4hgg/files/media/images/plot_0_a8731e0516bca4e528d1.png
2023-05-04 15:03:28,523 INFO    Thread-12 :2114594 [dir_watcher.py:_on_file_created():278] file/dir created: /home/honam/workspace/ode/pyur5/include/pyur5/wandb/run-20230504_150243-bbvc4hgg/files/media/images
2023-05-04 15:03:28,524 INFO    Thread-12 :2114594 [dir_watcher.py:_on_file_created():278] file/dir created: /home/honam/workspace/ode/pyur5/include/pyur5/wandb/run-20230504_150243-bbvc4hgg/files/media
2023-05-04 15:03:28,661 INFO    wandb-upload_0:2114594 [upload_job.py:push():137] Uploaded file /tmp/tmpuf2qdx7awandb/9w4dzagn-media/images/plot_0_a8731e0516bca4e528d1.png
2023-05-04 15:03:29,012 INFO    SenderThread:2114594 [sender.py:transition_state():626] send defer: 8
2023-05-04 15:03:29,012 DEBUG   HandlerThread:2114594 [handler.py:handle_request():144] handle_request: defer
2023-05-04 15:03:29,012 INFO    HandlerThread:2114594 [handler.py:handle_request_defer():170] handle defer: 8
2023-05-04 15:03:29,013 DEBUG   SenderThread:2114594 [sender.py:send_request():402] send_request: defer
2023-05-04 15:03:29,013 INFO    SenderThread:2114594 [sender.py:send_request_defer():622] handle sender defer: 8
2023-05-04 15:03:29,013 INFO    SenderThread:2114594 [sender.py:transition_state():626] send defer: 9
2023-05-04 15:03:29,014 DEBUG   HandlerThread:2114594 [handler.py:handle_request():144] handle_request: defer
2023-05-04 15:03:29,014 INFO    HandlerThread:2114594 [handler.py:handle_request_defer():170] handle defer: 9
2023-05-04 15:03:29,014 DEBUG   SenderThread:2114594 [sender.py:send_request():402] send_request: defer
2023-05-04 15:03:29,015 INFO    SenderThread:2114594 [sender.py:send_request_defer():622] handle sender defer: 9
2023-05-04 15:03:29,015 INFO    SenderThread:2114594 [dir_watcher.py:finish():365] shutting down directory watcher
2023-05-04 15:03:29,166 DEBUG   HandlerThread:2114594 [handler.py:handle_request():144] handle_request: poll_exit
2023-05-04 15:03:29,172 INFO    wandb-upload_0:2114594 [upload_job.py:push():137] Uploaded file /tmp/tmpuf2qdx7awandb/zyquk8os-media/images/plot_0_a8731e0516bca4e528d1.png
2023-05-04 15:03:29,523 INFO    Thread-12 :2114594 [dir_watcher.py:_on_file_modified():295] file/dir modified: /home/honam/workspace/ode/pyur5/include/pyur5/wandb/run-20230504_150243-bbvc4hgg/files/output.log
2023-05-04 15:03:29,525 INFO    SenderThread:2114594 [dir_watcher.py:finish():395] scan: /home/honam/workspace/ode/pyur5/include/pyur5/wandb/run-20230504_150243-bbvc4hgg/files
2023-05-04 15:03:29,525 INFO    SenderThread:2114594 [dir_watcher.py:finish():409] scan save: /home/honam/workspace/ode/pyur5/include/pyur5/wandb/run-20230504_150243-bbvc4hgg/files/config.yaml config.yaml
2023-05-04 15:03:29,526 INFO    SenderThread:2114594 [dir_watcher.py:finish():409] scan save: /home/honam/workspace/ode/pyur5/include/pyur5/wandb/run-20230504_150243-bbvc4hgg/files/wandb-summary.json wandb-summary.json
2023-05-04 15:03:29,536 INFO    SenderThread:2114594 [dir_watcher.py:finish():409] scan save: /home/honam/workspace/ode/pyur5/include/pyur5/wandb/run-20230504_150243-bbvc4hgg/files/requirements.txt requirements.txt
2023-05-04 15:03:29,543 INFO    SenderThread:2114594 [dir_watcher.py:finish():409] scan save: /home/honam/workspace/ode/pyur5/include/pyur5/wandb/run-20230504_150243-bbvc4hgg/files/conda-environment.yaml conda-environment.yaml
2023-05-04 15:03:29,551 INFO    SenderThread:2114594 [dir_watcher.py:finish():409] scan save: /home/honam/workspace/ode/pyur5/include/pyur5/wandb/run-20230504_150243-bbvc4hgg/files/wandb-metadata.json wandb-metadata.json
2023-05-04 15:03:29,552 INFO    SenderThread:2114594 [dir_watcher.py:finish():409] scan save: /home/honam/workspace/ode/pyur5/include/pyur5/wandb/run-20230504_150243-bbvc4hgg/files/output.log output.log
2023-05-04 15:03:29,568 INFO    SenderThread:2114594 [dir_watcher.py:finish():409] scan save: /home/honam/workspace/ode/pyur5/include/pyur5/wandb/run-20230504_150243-bbvc4hgg/files/media/images/plot_0_a8731e0516bca4e528d1.png media/images/plot_0_a8731e0516bca4e528d1.png
2023-05-04 15:03:29,568 INFO    SenderThread:2114594 [sender.py:transition_state():626] send defer: 10
2023-05-04 15:03:29,568 DEBUG   SenderThread:2114594 [sender.py:send_request():402] send_request: poll_exit
2023-05-04 15:03:29,569 DEBUG   HandlerThread:2114594 [handler.py:handle_request():144] handle_request: defer
2023-05-04 15:03:29,569 INFO    HandlerThread:2114594 [handler.py:handle_request_defer():170] handle defer: 10
2023-05-04 15:03:29,570 DEBUG   SenderThread:2114594 [sender.py:send_request():402] send_request: defer
2023-05-04 15:03:29,570 INFO    SenderThread:2114594 [sender.py:send_request_defer():622] handle sender defer: 10
2023-05-04 15:03:29,571 INFO    SenderThread:2114594 [file_pusher.py:finish():168] shutting down file pusher
2023-05-04 15:03:29,990 INFO    wandb-upload_1:2114594 [upload_job.py:push():137] Uploaded file /home/honam/workspace/ode/pyur5/include/pyur5/wandb/run-20230504_150243-bbvc4hgg/files/wandb-summary.json
2023-05-04 15:03:30,145 INFO    wandb-upload_3:2114594 [upload_job.py:push():137] Uploaded file /home/honam/workspace/ode/pyur5/include/pyur5/wandb/run-20230504_150243-bbvc4hgg/files/conda-environment.yaml
2023-05-04 15:03:30,154 INFO    wandb-upload_4:2114594 [upload_job.py:push():137] Uploaded file /home/honam/workspace/ode/pyur5/include/pyur5/wandb/run-20230504_150243-bbvc4hgg/files/output.log
2023-05-04 15:03:30,156 INFO    wandb-upload_2:2114594 [upload_job.py:push():137] Uploaded file /home/honam/workspace/ode/pyur5/include/pyur5/wandb/run-20230504_150243-bbvc4hgg/files/requirements.txt
2023-05-04 15:03:30,165 INFO    wandb-upload_0:2114594 [upload_job.py:push():137] Uploaded file /home/honam/workspace/ode/pyur5/include/pyur5/wandb/run-20230504_150243-bbvc4hgg/files/config.yaml
2023-05-04 15:03:30,166 DEBUG   HandlerThread:2114594 [handler.py:handle_request():144] handle_request: poll_exit
2023-05-04 15:03:30,167 DEBUG   SenderThread:2114594 [sender.py:send_request():402] send_request: poll_exit
2023-05-04 15:03:30,366 INFO    Thread-11 (_thread_body):2114594 [sender.py:transition_state():626] send defer: 11
2023-05-04 15:03:30,366 DEBUG   HandlerThread:2114594 [handler.py:handle_request():144] handle_request: defer
2023-05-04 15:03:30,366 INFO    HandlerThread:2114594 [handler.py:handle_request_defer():170] handle defer: 11
2023-05-04 15:03:30,367 DEBUG   SenderThread:2114594 [sender.py:send_request():402] send_request: defer
2023-05-04 15:03:30,367 INFO    SenderThread:2114594 [sender.py:send_request_defer():622] handle sender defer: 11
2023-05-04 15:03:30,367 INFO    SenderThread:2114594 [file_pusher.py:join():173] waiting for file pusher
2023-05-04 15:03:30,367 INFO    SenderThread:2114594 [sender.py:transition_state():626] send defer: 12
2023-05-04 15:03:30,367 DEBUG   HandlerThread:2114594 [handler.py:handle_request():144] handle_request: defer
2023-05-04 15:03:30,367 INFO    HandlerThread:2114594 [handler.py:handle_request_defer():170] handle defer: 12
2023-05-04 15:03:30,368 DEBUG   SenderThread:2114594 [sender.py:send_request():402] send_request: defer
2023-05-04 15:03:30,368 INFO    SenderThread:2114594 [sender.py:send_request_defer():622] handle sender defer: 12
2023-05-04 15:03:31,167 DEBUG   HandlerThread:2114594 [handler.py:handle_request():144] handle_request: poll_exit
2023-05-04 15:03:31,310 INFO    SenderThread:2114594 [sender.py:transition_state():626] send defer: 13
2023-05-04 15:03:31,310 DEBUG   SenderThread:2114594 [sender.py:send_request():402] send_request: poll_exit
2023-05-04 15:03:31,310 DEBUG   HandlerThread:2114594 [handler.py:handle_request():144] handle_request: defer
2023-05-04 15:03:31,311 INFO    HandlerThread:2114594 [handler.py:handle_request_defer():170] handle defer: 13
2023-05-04 15:03:31,312 DEBUG   SenderThread:2114594 [sender.py:send_request():402] send_request: defer
2023-05-04 15:03:31,312 INFO    SenderThread:2114594 [sender.py:send_request_defer():622] handle sender defer: 13
2023-05-04 15:03:31,312 INFO    SenderThread:2114594 [sender.py:transition_state():626] send defer: 14
2023-05-04 15:03:31,313 DEBUG   HandlerThread:2114594 [handler.py:handle_request():144] handle_request: defer
2023-05-04 15:03:31,313 DEBUG   SenderThread:2114594 [sender.py:send():375] send: final
2023-05-04 15:03:31,313 INFO    HandlerThread:2114594 [handler.py:handle_request_defer():170] handle defer: 14
2023-05-04 15:03:31,314 DEBUG   SenderThread:2114594 [sender.py:send():375] send: footer
2023-05-04 15:03:31,314 DEBUG   SenderThread:2114594 [sender.py:send_request():402] send_request: defer
2023-05-04 15:03:31,315 INFO    SenderThread:2114594 [sender.py:send_request_defer():622] handle sender defer: 14
2023-05-04 15:03:31,316 DEBUG   HandlerThread:2114594 [handler.py:handle_request():144] handle_request: poll_exit
2023-05-04 15:03:31,317 DEBUG   SenderThread:2114594 [sender.py:send_request():402] send_request: poll_exit
2023-05-04 15:03:31,317 DEBUG   HandlerThread:2114594 [handler.py:handle_request():144] handle_request: server_info
2023-05-04 15:03:31,318 DEBUG   HandlerThread:2114594 [handler.py:handle_request():144] handle_request: get_summary
2023-05-04 15:03:31,319 DEBUG   HandlerThread:2114594 [handler.py:handle_request():144] handle_request: sampled_history
2023-05-04 15:03:31,319 DEBUG   SenderThread:2114594 [sender.py:send_request():402] send_request: server_info
2023-05-04 15:03:31,601 DEBUG   HandlerThread:2114594 [handler.py:handle_request():144] handle_request: shutdown
2023-05-04 15:03:31,601 INFO    HandlerThread:2114594 [handler.py:finish():845] shutting down handler
2023-05-04 15:03:32,318 INFO    WriterThread:2114594 [datastore.py:close():298] close: /home/honam/workspace/ode/pyur5/include/pyur5/wandb/run-20230504_150243-bbvc4hgg/run-bbvc4hgg.wandb
2023-05-04 15:03:32,600 INFO    SenderThread:2114594 [sender.py:finish():1550] shutting down sender
2023-05-04 15:03:32,600 INFO    SenderThread:2114594 [file_pusher.py:finish():168] shutting down file pusher
2023-05-04 15:03:32,600 INFO    SenderThread:2114594 [file_pusher.py:join():173] waiting for file pusher
