{
    "os": "Linux-5.15.0-56-generic-x86_64-with-glibc2.35",
    "python": "3.10.9",
    "heartbeatAt": "2023-05-04T12:31:08.801185",
    "startedAt": "2023-05-04T12:31:07.851260",
    "docker": null,
    "cuda": null,
    "args": [],
    "state": "running",
    "program": "/home/honam/workspace/ode/pyur5/include/pyur5/plot.py",
    "codePath": "include/pyur5/plot.py",
    "git": {
        "remote": "git@gitlab.ethz.ch:honam/pyur5.git",
        "commit": "2c138a0a548b6fed763930d4fd68cb59486bcc94"
    },
    "email": "bizoffermark@gmail.com",
    "root": "/home/honam/workspace/ode/pyur5",
    "host": "safari-proxy",
    "username": "honam",
    "executable": "/home/honam/anaconda3/envs/ode/bin/python",
    "cpu_count": 24,
    "cpu_count_logical": 48,
    "cpu_freq": {
        "current": 1.2312083333333332,
        "min": 1000.0,
        "max": 3200.0
    },
    "cpu_freq_per_core": [
        {
            "current": 1.0,
            "min": 1000.0,
            "max": 3200.0
        },
        {
            "current": 1.0,
            "min": 1000.0,
            "max": 3200.0
        },
        {
            "current": 1.0,
            "min": 1000.0,
            "max": 3200.0
        },
        {
            "current": 2.1,
            "min": 1000.0,
            "max": 3200.0
        },
        {
            "current": 1.0,
            "min": 1000.0,
            "max": 3200.0
        },
        {
            "current": 1.0,
            "min": 1000.0,
            "max": 3200.0
        },
        {
            "current": 1.0,
            "min": 1000.0,
            "max": 3200.0
        },
        {
            "current": 1.0,
            "min": 1000.0,
            "max": 3200.0
        },
        {
            "current": 1.0,
            "min": 1000.0,
            "max": 3200.0
        },
        {
            "current": 1.0,
            "min": 1000.0,
            "max": 3200.0
        },
        {
            "current": 1.0,
            "min": 1000.0,
            "max": 3200.0
        },
        {
            "current": 1.0,
            "min": 1000.0,
            "max": 3200.0
        },
        {
            "current": 1.0,
            "min": 1000.0,
            "max": 3200.0
        },
        {
            "current": 1.0,
            "min": 1000.0,
            "max": 3200.0
        },
        {
            "current": 1.0,
            "min": 1000.0,
            "max": 3200.0
        },
        {
            "current": 1.0,
            "min": 1000.0,
            "max": 3200.0
        },
        {
            "current": 1.0,
            "min": 1000.0,
            "max": 3200.0
        },
        {
            "current": 3.2,
            "min": 1000.0,
            "max": 3200.0
        },
        {
            "current": 1.0,
            "min": 1000.0,
            "max": 3200.0
        },
        {
            "current": 1.0,
            "min": 1000.0,
            "max": 3200.0
        },
        {
            "current": 1.0,
            "min": 1000.0,
            "max": 3200.0
        },
        {
            "current": 1.0,
            "min": 1000.0,
            "max": 3200.0
        },
        {
            "current": 1.0,
            "min": 1000.0,
            "max": 3200.0
        },
        {
            "current": 1.0,
            "min": 1000.0,
            "max": 3200.0
        },
        {
            "current": 1.0,
            "min": 1000.0,
            "max": 3200.0
        },
        {
            "current": 1.0,
            "min": 1000.0,
            "max": 3200.0
        },
        {
            "current": 1.0,
            "min": 1000.0,
            "max": 3200.0
        },
        {
            "current": 1.0,
            "min": 1000.0,
            "max": 3200.0
        },
        {
            "current": 1.0,
            "min": 1000.0,
            "max": 3200.0
        },
        {
            "current": 1.0,
            "min": 1000.0,
            "max": 3200.0
        },
        {
            "current": 1.0,
            "min": 1000.0,
            "max": 3200.0
        },
        {
            "current": 1.0,
            "min": 1000.0,
            "max": 3200.0
        },
        {
            "current": 1.0,
            "min": 1000.0,
            "max": 3200.0
        },
        {
            "current": 1.8,
            "min": 1000.0,
            "max": 3200.0
        },
        {
            "current": 3.2,
            "min": 1000.0,
            "max": 3200.0
        },
        {
            "current": 2.0,
            "min": 1000.0,
            "max": 3200.0
        },
        {
            "current": 1.0,
            "min": 1000.0,
            "max": 3200.0
        },
        {
            "current": 2.0,
            "min": 1000.0,
            "max": 3200.0
        },
        {
            "current": 1.0,
            "min": 1000.0,
            "max": 3200.0
        },
        {
            "current": 2.1,
            "min": 1000.0,
            "max": 3200.0
        },
        {
            "current": 1.0,
            "min": 1000.0,
            "max": 3200.0
        },
        {
            "current": 1.0,
            "min": 1000.0,
            "max": 3200.0
        },
        {
            "current": 1.0,
            "min": 1000.0,
            "max": 3200.0
        },
        {
            "current": 1.0,
            "min": 1000.0,
            "max": 3200.0
        },
        {
            "current": 1.0,
            "min": 1000.0,
            "max": 3200.0
        },
        {
            "current": 1.0,
            "min": 1000.0,
            "max": 3200.0
        },
        {
            "current": 1.0,
            "min": 1000.0,
            "max": 3200.0
        },
        {
            "current": 1.0,
            "min": 1000.0,
            "max": 3200.0
        }
    ],
    "disk": {
        "total": 878.1531105041504,
        "used": 219.67618942260742
    },
    "memory": {
        "total": 187.47517776489258
    }
}
