2023-05-04 00:39:51,913 INFO    StreamThr :507695 [internal.py:wandb_internal():86] W&B internal server running at pid: 507695, started at: 2023-05-04 00:39:51.911308
2023-05-04 00:39:51,914 DEBUG   HandlerThread:507695 [handler.py:handle_request():144] handle_request: status
2023-05-04 00:39:51,915 INFO    WriterThread:507695 [datastore.py:open_for_write():85] open: /home/honam/workspace/ode/pyur5/include/pyur5/wandb/run-20230504_003951-c4ynmm6u/run-c4ynmm6u.wandb
2023-05-04 00:39:51,922 DEBUG   SenderThread:507695 [sender.py:send():375] send: header
2023-05-04 00:39:51,922 DEBUG   SenderThread:507695 [sender.py:send():375] send: run
2023-05-04 00:39:52,541 INFO    SenderThread:507695 [dir_watcher.py:__init__():219] watching files in: /home/honam/workspace/ode/pyur5/include/pyur5/wandb/run-20230504_003951-c4ynmm6u/files
2023-05-04 00:39:52,541 INFO    SenderThread:507695 [sender.py:_start_run_threads():1124] run started: c4ynmm6u with start time 1683153591.022541
2023-05-04 00:39:52,541 DEBUG   SenderThread:507695 [sender.py:send_request():402] send_request: summary_record
2023-05-04 00:39:52,545 DEBUG   HandlerThread:507695 [handler.py:handle_request():144] handle_request: check_version
2023-05-04 00:39:52,581 INFO    SenderThread:507695 [sender.py:_save_file():1378] saving file wandb-summary.json with policy end
2023-05-04 00:39:52,581 DEBUG   SenderThread:507695 [sender.py:send_request():402] send_request: check_version
2023-05-04 00:39:52,717 DEBUG   HandlerThread:507695 [handler.py:handle_request():144] handle_request: run_start
2023-05-04 00:39:52,718 DEBUG   HandlerThread:507695 [system_info.py:__init__():31] System info init
2023-05-04 00:39:52,718 DEBUG   HandlerThread:507695 [system_info.py:__init__():46] System info init done
2023-05-04 00:39:52,718 INFO    HandlerThread:507695 [system_monitor.py:start():181] Starting system monitor
2023-05-04 00:39:52,718 INFO    SystemMonitor:507695 [system_monitor.py:_start():145] Starting system asset monitoring threads
2023-05-04 00:39:52,718 INFO    HandlerThread:507695 [system_monitor.py:probe():201] Collecting system info
2023-05-04 00:39:52,719 INFO    SystemMonitor:507695 [interfaces.py:start():190] Started cpu monitoring
2023-05-04 00:39:52,720 INFO    SystemMonitor:507695 [interfaces.py:start():190] Started disk monitoring
2023-05-04 00:39:52,720 INFO    SystemMonitor:507695 [interfaces.py:start():190] Started gpu monitoring
2023-05-04 00:39:52,722 INFO    SystemMonitor:507695 [interfaces.py:start():190] Started memory monitoring
2023-05-04 00:39:52,722 INFO    SystemMonitor:507695 [interfaces.py:start():190] Started network monitoring
2023-05-04 00:39:52,745 DEBUG   HandlerThread:507695 [system_info.py:probe():195] Probing system
2023-05-04 00:39:52,748 DEBUG   HandlerThread:507695 [system_info.py:_probe_git():180] Probing git
2023-05-04 00:39:52,787 DEBUG   HandlerThread:507695 [system_info.py:_probe_git():188] Probing git done
2023-05-04 00:39:52,787 DEBUG   HandlerThread:507695 [system_info.py:probe():240] Probing system done
2023-05-04 00:39:52,787 DEBUG   HandlerThread:507695 [system_monitor.py:probe():210] {'os': 'Linux-5.15.0-60-generic-x86_64-with-glibc2.35', 'python': '3.10.9', 'heartbeatAt': '2023-05-03T22:39:52.746060', 'startedAt': '2023-05-03T22:39:51.001600', 'docker': None, 'cuda': None, 'args': (), 'state': 'running', 'program': '/home/honam/workspace/ode/pyur5/include/pyur5/plot.py', 'codePath': 'include/pyur5/plot.py', 'git': {'remote': 'git@gitlab.ethz.ch:honam/pyur5.git', 'commit': '9f23523ae7a9762984e9a1f01b5cd8c4e032a0eb'}, 'email': 'bizoffermark@gmail.com', 'root': '/home/honam/workspace/ode/pyur5', 'host': 'safari-gpu1', 'username': 'honam', 'executable': '/home/honam/anaconda3/envs/ode/bin/python', 'cpu_count': 16, 'cpu_count_logical': 24, 'cpu_freq': {'current': 3.3557916666666667, 'min': 800.0, 'max': 4950.0}, 'cpu_freq_per_core': [{'current': 2.339, 'min': 800.0, 'max': 5300.0}, {'current': 3.4, 'min': 800.0, 'max': 5300.0}, {'current': 3.4, 'min': 800.0, 'max': 5300.0}, {'current': 3.4, 'min': 800.0, 'max': 5300.0}, {'current': 3.4, 'min': 800.0, 'max': 5300.0}, {'current': 3.4, 'min': 800.0, 'max': 5300.0}, {'current': 3.4, 'min': 800.0, 'max': 5300.0}, {'current': 3.4, 'min': 800.0, 'max': 5300.0}, {'current': 3.4, 'min': 800.0, 'max': 5400.0}, {'current': 3.4, 'min': 800.0, 'max': 5400.0}, {'current': 3.4, 'min': 800.0, 'max': 5400.0}, {'current': 3.4, 'min': 800.0, 'max': 5400.0}, {'current': 3.4, 'min': 800.0, 'max': 5300.0}, {'current': 3.4, 'min': 800.0, 'max': 5300.0}, {'current': 3.4, 'min': 800.0, 'max': 5300.0}, {'current': 3.4, 'min': 800.0, 'max': 5300.0}, {'current': 3.4, 'min': 800.0, 'max': 4200.0}, {'current': 3.4, 'min': 800.0, 'max': 4200.0}, {'current': 3.4, 'min': 800.0, 'max': 4200.0}, {'current': 3.4, 'min': 800.0, 'max': 4200.0}, {'current': 3.4, 'min': 800.0, 'max': 4200.0}, {'current': 3.4, 'min': 800.0, 'max': 4200.0}, {'current': 3.4, 'min': 800.0, 'max': 4200.0}, {'current': 3.4, 'min': 800.0, 'max': 4200.0}], 'disk': {'total': 914.7823104858398, 'used': 48.35451889038086}, 'gpu': 'NVIDIA RTX A6000', 'gpu_count': 1, 'gpu_devices': [{'name': 'NVIDIA RTX A6000', 'memory_total': 51527024640}], 'memory': {'total': 125.57927322387695}}
2023-05-04 00:39:52,788 INFO    HandlerThread:507695 [system_monitor.py:probe():211] Finished collecting system info
2023-05-04 00:39:52,788 INFO    HandlerThread:507695 [system_monitor.py:probe():214] Publishing system info
2023-05-04 00:39:52,788 DEBUG   HandlerThread:507695 [system_info.py:_save_pip():51] Saving list of pip packages installed into the current environment
2023-05-04 00:39:52,790 DEBUG   HandlerThread:507695 [system_info.py:_save_pip():67] Saving pip packages done
2023-05-04 00:39:52,790 DEBUG   HandlerThread:507695 [system_info.py:_save_conda():74] Saving list of conda packages installed into the current environment
2023-05-04 00:39:53,545 INFO    Thread-62 :507695 [dir_watcher.py:_on_file_created():278] file/dir created: /home/honam/workspace/ode/pyur5/include/pyur5/wandb/run-20230504_003951-c4ynmm6u/files/conda-environment.yaml
2023-05-04 00:39:53,545 INFO    Thread-62 :507695 [dir_watcher.py:_on_file_created():278] file/dir created: /home/honam/workspace/ode/pyur5/include/pyur5/wandb/run-20230504_003951-c4ynmm6u/files/requirements.txt
2023-05-04 00:39:53,545 INFO    Thread-62 :507695 [dir_watcher.py:_on_file_created():278] file/dir created: /home/honam/workspace/ode/pyur5/include/pyur5/wandb/run-20230504_003951-c4ynmm6u/files/wandb-summary.json
2023-05-04 00:39:59,001 DEBUG   HandlerThread:507695 [system_info.py:_save_conda():86] Saving conda packages done
2023-05-04 00:39:59,005 INFO    HandlerThread:507695 [system_monitor.py:probe():216] Finished publishing system info
2023-05-04 00:39:59,005 DEBUG   HandlerThread:507695 [handler.py:handle_request():144] handle_request: status_report
2023-05-04 00:39:59,005 DEBUG   HandlerThread:507695 [handler.py:handle_request():144] handle_request: keepalive
2023-05-04 00:39:59,006 DEBUG   SenderThread:507695 [sender.py:send():375] send: files
2023-05-04 00:39:59,006 INFO    SenderThread:507695 [sender.py:_save_file():1378] saving file wandb-metadata.json with policy now
2023-05-04 00:39:59,022 DEBUG   HandlerThread:507695 [handler.py:handle_request():144] handle_request: stop_status
2023-05-04 00:39:59,022 DEBUG   SenderThread:507695 [sender.py:send_request():402] send_request: stop_status
2023-05-04 00:39:59,246 DEBUG   SenderThread:507695 [sender.py:send():375] send: telemetry
2023-05-04 00:39:59,522 INFO    wandb-upload_0:507695 [upload_job.py:push():137] Uploaded file /tmp/tmpiq3_6hobwandb/ouj40x7f-wandb-metadata.json
2023-05-04 00:39:59,544 DEBUG   SenderThread:507695 [sender.py:send():375] send: files
2023-05-04 00:39:59,544 INFO    SenderThread:507695 [sender.py:_save_file():1378] saving file media/images/plot_0_c56ae02a225c73ddcb7b.png with policy now
2023-05-04 00:39:59,545 DEBUG   HandlerThread:507695 [handler.py:handle_request():144] handle_request: partial_history
2023-05-04 00:39:59,545 DEBUG   SenderThread:507695 [sender.py:send():375] send: history
2023-05-04 00:39:59,545 DEBUG   SenderThread:507695 [sender.py:send_request():402] send_request: summary_record
2023-05-04 00:39:59,549 INFO    SenderThread:507695 [sender.py:_save_file():1378] saving file wandb-summary.json with policy end
2023-05-04 00:39:59,549 DEBUG   SenderThread:507695 [sender.py:send():375] send: telemetry
2023-05-04 00:39:59,549 DEBUG   SenderThread:507695 [sender.py:send():375] send: exit
2023-05-04 00:39:59,549 INFO    SenderThread:507695 [sender.py:send_exit():598] handling exit code: 0
2023-05-04 00:39:59,549 INFO    SenderThread:507695 [sender.py:send_exit():600] handling runtime: 6
2023-05-04 00:39:59,551 INFO    SenderThread:507695 [sender.py:_save_file():1378] saving file wandb-summary.json with policy end
2023-05-04 00:39:59,551 INFO    SenderThread:507695 [sender.py:send_exit():606] send defer
2023-05-04 00:39:59,551 DEBUG   HandlerThread:507695 [handler.py:handle_request():144] handle_request: defer
2023-05-04 00:39:59,551 INFO    HandlerThread:507695 [handler.py:handle_request_defer():170] handle defer: 0
2023-05-04 00:39:59,551 DEBUG   SenderThread:507695 [sender.py:send_request():402] send_request: defer
2023-05-04 00:39:59,551 INFO    SenderThread:507695 [sender.py:send_request_defer():622] handle sender defer: 0
2023-05-04 00:39:59,552 INFO    SenderThread:507695 [sender.py:transition_state():626] send defer: 1
2023-05-04 00:39:59,552 DEBUG   HandlerThread:507695 [handler.py:handle_request():144] handle_request: defer
2023-05-04 00:39:59,552 INFO    HandlerThread:507695 [handler.py:handle_request_defer():170] handle defer: 1
2023-05-04 00:39:59,552 DEBUG   SenderThread:507695 [sender.py:send_request():402] send_request: defer
2023-05-04 00:39:59,552 INFO    SenderThread:507695 [sender.py:send_request_defer():622] handle sender defer: 1
2023-05-04 00:39:59,552 INFO    SenderThread:507695 [sender.py:transition_state():626] send defer: 2
2023-05-04 00:39:59,552 DEBUG   HandlerThread:507695 [handler.py:handle_request():144] handle_request: defer
2023-05-04 00:39:59,552 INFO    HandlerThread:507695 [handler.py:handle_request_defer():170] handle defer: 2
2023-05-04 00:39:59,552 INFO    HandlerThread:507695 [system_monitor.py:finish():190] Stopping system monitor
2023-05-04 00:39:59,552 DEBUG   SystemMonitor:507695 [system_monitor.py:_start():159] Starting system metrics aggregation loop
2023-05-04 00:39:59,552 DEBUG   SystemMonitor:507695 [system_monitor.py:_start():166] Finished system metrics aggregation loop
2023-05-04 00:39:59,552 DEBUG   SystemMonitor:507695 [system_monitor.py:_start():170] Publishing last batch of metrics
2023-05-04 00:39:59,557 INFO    HandlerThread:507695 [interfaces.py:finish():202] Joined cpu monitor
2023-05-04 00:39:59,558 INFO    HandlerThread:507695 [interfaces.py:finish():202] Joined disk monitor
2023-05-04 00:39:59,559 INFO    Thread-62 :507695 [dir_watcher.py:_on_file_modified():295] file/dir modified: /home/honam/workspace/ode/pyur5/include/pyur5/wandb/run-20230504_003951-c4ynmm6u/files/conda-environment.yaml
2023-05-04 00:39:59,559 INFO    Thread-62 :507695 [dir_watcher.py:_on_file_modified():295] file/dir modified: /home/honam/workspace/ode/pyur5/include/pyur5/wandb/run-20230504_003951-c4ynmm6u/files/wandb-summary.json
2023-05-04 00:39:59,559 INFO    Thread-62 :507695 [dir_watcher.py:_on_file_created():278] file/dir created: /home/honam/workspace/ode/pyur5/include/pyur5/wandb/run-20230504_003951-c4ynmm6u/files/wandb-metadata.json
2023-05-04 00:39:59,559 INFO    Thread-62 :507695 [dir_watcher.py:_on_file_created():278] file/dir created: /home/honam/workspace/ode/pyur5/include/pyur5/wandb/run-20230504_003951-c4ynmm6u/files/media/images/plot_0_c56ae02a225c73ddcb7b.png
2023-05-04 00:39:59,559 INFO    Thread-62 :507695 [dir_watcher.py:_on_file_created():278] file/dir created: /home/honam/workspace/ode/pyur5/include/pyur5/wandb/run-20230504_003951-c4ynmm6u/files/media
2023-05-04 00:39:59,560 INFO    Thread-62 :507695 [dir_watcher.py:_on_file_created():278] file/dir created: /home/honam/workspace/ode/pyur5/include/pyur5/wandb/run-20230504_003951-c4ynmm6u/files/media/images
2023-05-04 00:39:59,565 INFO    HandlerThread:507695 [interfaces.py:finish():202] Joined gpu monitor
2023-05-04 00:39:59,565 INFO    HandlerThread:507695 [interfaces.py:finish():202] Joined memory monitor
2023-05-04 00:39:59,565 INFO    HandlerThread:507695 [interfaces.py:finish():202] Joined network monitor
2023-05-04 00:39:59,565 DEBUG   SenderThread:507695 [sender.py:send_request():402] send_request: defer
2023-05-04 00:39:59,565 INFO    SenderThread:507695 [sender.py:send_request_defer():622] handle sender defer: 2
2023-05-04 00:39:59,565 INFO    SenderThread:507695 [sender.py:transition_state():626] send defer: 3
2023-05-04 00:39:59,565 DEBUG   HandlerThread:507695 [handler.py:handle_request():144] handle_request: defer
2023-05-04 00:39:59,565 INFO    HandlerThread:507695 [handler.py:handle_request_defer():170] handle defer: 3
2023-05-04 00:39:59,565 DEBUG   SenderThread:507695 [sender.py:send_request():402] send_request: defer
2023-05-04 00:39:59,565 INFO    SenderThread:507695 [sender.py:send_request_defer():622] handle sender defer: 3
2023-05-04 00:39:59,565 INFO    SenderThread:507695 [sender.py:transition_state():626] send defer: 4
2023-05-04 00:39:59,565 DEBUG   HandlerThread:507695 [handler.py:handle_request():144] handle_request: defer
2023-05-04 00:39:59,565 INFO    HandlerThread:507695 [handler.py:handle_request_defer():170] handle defer: 4
2023-05-04 00:39:59,565 DEBUG   SenderThread:507695 [sender.py:send_request():402] send_request: defer
2023-05-04 00:39:59,565 INFO    SenderThread:507695 [sender.py:send_request_defer():622] handle sender defer: 4
2023-05-04 00:39:59,565 INFO    SenderThread:507695 [sender.py:transition_state():626] send defer: 5
2023-05-04 00:39:59,565 DEBUG   HandlerThread:507695 [handler.py:handle_request():144] handle_request: defer
2023-05-04 00:39:59,565 INFO    HandlerThread:507695 [handler.py:handle_request_defer():170] handle defer: 5
2023-05-04 00:39:59,565 DEBUG   SenderThread:507695 [sender.py:send():375] send: summary
2023-05-04 00:39:59,567 INFO    SenderThread:507695 [sender.py:_save_file():1378] saving file wandb-summary.json with policy end
2023-05-04 00:39:59,568 DEBUG   SenderThread:507695 [sender.py:send_request():402] send_request: defer
2023-05-04 00:39:59,568 INFO    SenderThread:507695 [sender.py:send_request_defer():622] handle sender defer: 5
2023-05-04 00:39:59,568 INFO    SenderThread:507695 [sender.py:transition_state():626] send defer: 6
2023-05-04 00:39:59,568 DEBUG   HandlerThread:507695 [handler.py:handle_request():144] handle_request: defer
2023-05-04 00:39:59,568 INFO    HandlerThread:507695 [handler.py:handle_request_defer():170] handle defer: 6
2023-05-04 00:39:59,568 DEBUG   SenderThread:507695 [sender.py:send_request():402] send_request: defer
2023-05-04 00:39:59,568 INFO    SenderThread:507695 [sender.py:send_request_defer():622] handle sender defer: 6
2023-05-04 00:39:59,569 DEBUG   HandlerThread:507695 [handler.py:handle_request():144] handle_request: status_report
2023-05-04 00:39:59,772 INFO    SenderThread:507695 [sender.py:transition_state():626] send defer: 7
2023-05-04 00:39:59,772 DEBUG   HandlerThread:507695 [handler.py:handle_request():144] handle_request: defer
2023-05-04 00:39:59,772 INFO    HandlerThread:507695 [handler.py:handle_request_defer():170] handle defer: 7
2023-05-04 00:39:59,773 DEBUG   SenderThread:507695 [sender.py:send_request():402] send_request: defer
2023-05-04 00:39:59,773 INFO    SenderThread:507695 [sender.py:send_request_defer():622] handle sender defer: 7
2023-05-04 00:39:59,773 INFO    SenderThread:507695 [sender.py:transition_state():626] send defer: 8
2023-05-04 00:39:59,773 DEBUG   HandlerThread:507695 [handler.py:handle_request():144] handle_request: defer
2023-05-04 00:39:59,773 INFO    HandlerThread:507695 [handler.py:handle_request_defer():170] handle defer: 8
2023-05-04 00:39:59,773 DEBUG   SenderThread:507695 [sender.py:send_request():402] send_request: defer
2023-05-04 00:39:59,773 INFO    SenderThread:507695 [sender.py:send_request_defer():622] handle sender defer: 8
2023-05-04 00:39:59,805 INFO    SenderThread:507695 [sender.py:transition_state():626] send defer: 9
2023-05-04 00:39:59,805 DEBUG   SenderThread:507695 [sender.py:send():375] send: artifact
2023-05-04 00:39:59,805 DEBUG   HandlerThread:507695 [handler.py:handle_request():144] handle_request: defer
2023-05-04 00:39:59,808 INFO    HandlerThread:507695 [handler.py:handle_request_defer():170] handle defer: 9
2023-05-04 00:40:00,039 INFO    wandb-upload_0:507695 [upload_job.py:push():137] Uploaded file /tmp/tmpiq3_6hobwandb/igc4yui2-media/images/plot_0_c56ae02a225c73ddcb7b.png
2023-05-04 00:40:00,547 DEBUG   HandlerThread:507695 [handler.py:handle_request():144] handle_request: poll_exit
2023-05-04 00:40:00,562 INFO    Thread-62 :507695 [dir_watcher.py:_on_file_modified():295] file/dir modified: /home/honam/workspace/ode/pyur5/include/pyur5/wandb/run-20230504_003951-c4ynmm6u/files/wandb-summary.json
2023-05-04 00:40:00,562 INFO    Thread-62 :507695 [dir_watcher.py:_on_file_modified():295] file/dir modified: /home/honam/workspace/ode/pyur5/include/pyur5/wandb/run-20230504_003951-c4ynmm6u/files/config.yaml
2023-05-04 00:40:00,624 INFO    wandb-upload_0:507695 [upload_job.py:push():137] Uploaded file /tmp/tmpiq3_6hobwandb/qujie86q-media/images/plot_0_c56ae02a225c73ddcb7b.png
2023-05-04 00:40:00,708 INFO    SenderThread:507695 [sender.py:send_artifact():1474] sent artifact job-git_gitlab.ethz.ch_honam_pyur5.git_include_pyur5_plot.py - {'id': 'QXJ0aWZhY3Q6NDQxMTA2NzYy', 'digest': '9e00f1042d4e91a66895b201a78df715', 'state': 'COMMITTED', 'aliases': [{'artifactCollectionName': 'job-git_gitlab.ethz.ch_honam_pyur5.git_include_pyur5_plot.py', 'alias': 'latest'}, {'artifactCollectionName': 'job-git_gitlab.ethz.ch_honam_pyur5.git_include_pyur5_plot.py', 'alias': 'v3'}], 'artifactSequence': {'id': 'QXJ0aWZhY3RDb2xsZWN0aW9uOjY2NDIyMDAy', 'latestArtifact': {'id': 'QXJ0aWZhY3Q6NDQxMTA2NzYy', 'versionIndex': 3}}, 'version': 'v3'}
2023-05-04 00:40:00,708 DEBUG   SenderThread:507695 [sender.py:send_request():402] send_request: defer
2023-05-04 00:40:00,708 INFO    SenderThread:507695 [sender.py:send_request_defer():622] handle sender defer: 9
2023-05-04 00:40:00,708 INFO    SenderThread:507695 [dir_watcher.py:finish():365] shutting down directory watcher
2023-05-04 00:40:01,567 INFO    SenderThread:507695 [dir_watcher.py:finish():395] scan: /home/honam/workspace/ode/pyur5/include/pyur5/wandb/run-20230504_003951-c4ynmm6u/files
2023-05-04 00:40:01,568 INFO    SenderThread:507695 [dir_watcher.py:finish():409] scan save: /home/honam/workspace/ode/pyur5/include/pyur5/wandb/run-20230504_003951-c4ynmm6u/files/config.yaml config.yaml
2023-05-04 00:40:01,568 INFO    SenderThread:507695 [dir_watcher.py:finish():409] scan save: /home/honam/workspace/ode/pyur5/include/pyur5/wandb/run-20230504_003951-c4ynmm6u/files/wandb-summary.json wandb-summary.json
2023-05-04 00:40:01,572 INFO    SenderThread:507695 [dir_watcher.py:finish():409] scan save: /home/honam/workspace/ode/pyur5/include/pyur5/wandb/run-20230504_003951-c4ynmm6u/files/requirements.txt requirements.txt
2023-05-04 00:40:01,573 INFO    SenderThread:507695 [dir_watcher.py:finish():409] scan save: /home/honam/workspace/ode/pyur5/include/pyur5/wandb/run-20230504_003951-c4ynmm6u/files/conda-environment.yaml conda-environment.yaml
2023-05-04 00:40:01,573 INFO    SenderThread:507695 [dir_watcher.py:finish():409] scan save: /home/honam/workspace/ode/pyur5/include/pyur5/wandb/run-20230504_003951-c4ynmm6u/files/wandb-metadata.json wandb-metadata.json
2023-05-04 00:40:01,577 INFO    SenderThread:507695 [dir_watcher.py:finish():409] scan save: /home/honam/workspace/ode/pyur5/include/pyur5/wandb/run-20230504_003951-c4ynmm6u/files/media/images/plot_0_c56ae02a225c73ddcb7b.png media/images/plot_0_c56ae02a225c73ddcb7b.png
2023-05-04 00:40:01,578 INFO    SenderThread:507695 [sender.py:transition_state():626] send defer: 10
2023-05-04 00:40:01,578 DEBUG   SenderThread:507695 [sender.py:send_request():402] send_request: poll_exit
2023-05-04 00:40:01,578 DEBUG   HandlerThread:507695 [handler.py:handle_request():144] handle_request: defer
2023-05-04 00:40:01,578 INFO    HandlerThread:507695 [handler.py:handle_request_defer():170] handle defer: 10
2023-05-04 00:40:01,579 DEBUG   SenderThread:507695 [sender.py:send_request():402] send_request: defer
2023-05-04 00:40:01,579 INFO    SenderThread:507695 [sender.py:send_request_defer():622] handle sender defer: 10
2023-05-04 00:40:01,579 INFO    SenderThread:507695 [file_pusher.py:finish():168] shutting down file pusher
2023-05-04 00:40:02,044 INFO    wandb-upload_0:507695 [upload_job.py:push():137] Uploaded file /home/honam/workspace/ode/pyur5/include/pyur5/wandb/run-20230504_003951-c4ynmm6u/files/config.yaml
2023-05-04 00:40:02,126 INFO    wandb-upload_2:507695 [upload_job.py:push():137] Uploaded file /home/honam/workspace/ode/pyur5/include/pyur5/wandb/run-20230504_003951-c4ynmm6u/files/requirements.txt
2023-05-04 00:40:02,133 INFO    wandb-upload_3:507695 [upload_job.py:push():137] Uploaded file /home/honam/workspace/ode/pyur5/include/pyur5/wandb/run-20230504_003951-c4ynmm6u/files/conda-environment.yaml
2023-05-04 00:40:02,156 INFO    wandb-upload_1:507695 [upload_job.py:push():137] Uploaded file /home/honam/workspace/ode/pyur5/include/pyur5/wandb/run-20230504_003951-c4ynmm6u/files/wandb-summary.json
2023-05-04 00:40:02,357 INFO    Thread-61 (_thread_body):507695 [sender.py:transition_state():626] send defer: 11
2023-05-04 00:40:02,357 DEBUG   HandlerThread:507695 [handler.py:handle_request():144] handle_request: defer
2023-05-04 00:40:02,357 INFO    HandlerThread:507695 [handler.py:handle_request_defer():170] handle defer: 11
2023-05-04 00:40:02,358 DEBUG   SenderThread:507695 [sender.py:send_request():402] send_request: defer
2023-05-04 00:40:02,358 INFO    SenderThread:507695 [sender.py:send_request_defer():622] handle sender defer: 11
2023-05-04 00:40:02,358 INFO    SenderThread:507695 [file_pusher.py:join():173] waiting for file pusher
2023-05-04 00:40:02,358 INFO    SenderThread:507695 [sender.py:transition_state():626] send defer: 12
2023-05-04 00:40:02,358 DEBUG   HandlerThread:507695 [handler.py:handle_request():144] handle_request: defer
2023-05-04 00:40:02,358 INFO    HandlerThread:507695 [handler.py:handle_request_defer():170] handle defer: 12
2023-05-04 00:40:02,358 DEBUG   SenderThread:507695 [sender.py:send_request():402] send_request: defer
2023-05-04 00:40:02,358 INFO    SenderThread:507695 [sender.py:send_request_defer():622] handle sender defer: 12
2023-05-04 00:40:02,673 INFO    SenderThread:507695 [sender.py:transition_state():626] send defer: 13
2023-05-04 00:40:02,673 DEBUG   HandlerThread:507695 [handler.py:handle_request():144] handle_request: defer
2023-05-04 00:40:02,673 INFO    HandlerThread:507695 [handler.py:handle_request_defer():170] handle defer: 13
2023-05-04 00:40:02,674 DEBUG   SenderThread:507695 [sender.py:send_request():402] send_request: defer
2023-05-04 00:40:02,674 INFO    SenderThread:507695 [sender.py:send_request_defer():622] handle sender defer: 13
2023-05-04 00:40:02,674 INFO    SenderThread:507695 [sender.py:transition_state():626] send defer: 14
2023-05-04 00:40:02,674 DEBUG   HandlerThread:507695 [handler.py:handle_request():144] handle_request: defer
2023-05-04 00:40:02,674 INFO    HandlerThread:507695 [handler.py:handle_request_defer():170] handle defer: 14
2023-05-04 00:40:02,674 DEBUG   SenderThread:507695 [sender.py:send():375] send: final
2023-05-04 00:40:02,674 DEBUG   SenderThread:507695 [sender.py:send():375] send: footer
2023-05-04 00:40:02,675 DEBUG   SenderThread:507695 [sender.py:send_request():402] send_request: defer
2023-05-04 00:40:02,675 INFO    SenderThread:507695 [sender.py:send_request_defer():622] handle sender defer: 14
2023-05-04 00:40:02,676 DEBUG   HandlerThread:507695 [handler.py:handle_request():144] handle_request: poll_exit
2023-05-04 00:40:02,676 DEBUG   HandlerThread:507695 [handler.py:handle_request():144] handle_request: server_info
2023-05-04 00:40:02,676 DEBUG   HandlerThread:507695 [handler.py:handle_request():144] handle_request: get_summary
2023-05-04 00:40:02,676 DEBUG   HandlerThread:507695 [handler.py:handle_request():144] handle_request: sampled_history
2023-05-04 00:40:02,677 DEBUG   SenderThread:507695 [sender.py:send_request():402] send_request: poll_exit
2023-05-04 00:40:02,677 DEBUG   SenderThread:507695 [sender.py:send_request():402] send_request: server_info
2023-05-04 00:40:02,851 DEBUG   HandlerThread:507695 [handler.py:handle_request():144] handle_request: shutdown
2023-05-04 00:40:02,851 INFO    HandlerThread:507695 [handler.py:finish():845] shutting down handler
2023-05-04 00:40:03,677 INFO    WriterThread:507695 [datastore.py:close():298] close: /home/honam/workspace/ode/pyur5/include/pyur5/wandb/run-20230504_003951-c4ynmm6u/run-c4ynmm6u.wandb
2023-05-04 00:40:03,853 INFO    SenderThread:507695 [sender.py:finish():1550] shutting down sender
2023-05-04 00:40:03,853 INFO    SenderThread:507695 [file_pusher.py:finish():168] shutting down file pusher
2023-05-04 00:40:03,853 INFO    SenderThread:507695 [file_pusher.py:join():173] waiting for file pusher
