2023-05-04 15:17:02,617 INFO    StreamThr :2120561 [internal.py:wandb_internal():86] W&B internal server running at pid: 2120561, started at: 2023-05-04 15:17:02.616914
2023-05-04 15:17:02,620 DEBUG   HandlerThread:2120561 [handler.py:handle_request():144] handle_request: status
2023-05-04 15:17:02,665 INFO    WriterThread:2120561 [datastore.py:open_for_write():85] open: /home/honam/workspace/ode/pyur5/include/pyur5/wandb/run-20230504_151702-apf0iem9/run-apf0iem9.wandb
2023-05-04 15:17:02,666 DEBUG   SenderThread:2120561 [sender.py:send():375] send: header
2023-05-04 15:17:02,685 DEBUG   SenderThread:2120561 [sender.py:send():375] send: run
2023-05-04 15:17:03,294 INFO    SenderThread:2120561 [dir_watcher.py:__init__():219] watching files in: /home/honam/workspace/ode/pyur5/include/pyur5/wandb/run-20230504_151702-apf0iem9/files
2023-05-04 15:17:03,295 INFO    SenderThread:2120561 [sender.py:_start_run_threads():1124] run started: apf0iem9 with start time 1683206222.630388
2023-05-04 15:17:03,295 DEBUG   SenderThread:2120561 [sender.py:send_request():402] send_request: summary_record
2023-05-04 15:17:03,296 INFO    SenderThread:2120561 [sender.py:_save_file():1378] saving file wandb-summary.json with policy end
2023-05-04 15:17:03,297 DEBUG   HandlerThread:2120561 [handler.py:handle_request():144] handle_request: check_version
2023-05-04 15:17:03,297 DEBUG   SenderThread:2120561 [sender.py:send_request():402] send_request: check_version
2023-05-04 15:17:03,458 DEBUG   HandlerThread:2120561 [handler.py:handle_request():144] handle_request: run_start
2023-05-04 15:17:03,461 DEBUG   HandlerThread:2120561 [system_info.py:__init__():31] System info init
2023-05-04 15:17:03,461 DEBUG   HandlerThread:2120561 [system_info.py:__init__():46] System info init done
2023-05-04 15:17:03,461 INFO    HandlerThread:2120561 [system_monitor.py:start():181] Starting system monitor
2023-05-04 15:17:03,462 INFO    SystemMonitor:2120561 [system_monitor.py:_start():145] Starting system asset monitoring threads
2023-05-04 15:17:03,462 INFO    HandlerThread:2120561 [system_monitor.py:probe():201] Collecting system info
2023-05-04 15:17:03,463 INFO    SystemMonitor:2120561 [interfaces.py:start():190] Started cpu monitoring
2023-05-04 15:17:03,463 INFO    SystemMonitor:2120561 [interfaces.py:start():190] Started disk monitoring
2023-05-04 15:17:03,464 INFO    SystemMonitor:2120561 [interfaces.py:start():190] Started memory monitoring
2023-05-04 15:17:03,465 INFO    SystemMonitor:2120561 [interfaces.py:start():190] Started network monitoring
2023-05-04 15:17:03,547 DEBUG   HandlerThread:2120561 [system_info.py:probe():195] Probing system
2023-05-04 15:17:03,552 DEBUG   HandlerThread:2120561 [system_info.py:_probe_git():180] Probing git
2023-05-04 15:17:03,575 DEBUG   HandlerThread:2120561 [system_info.py:_probe_git():188] Probing git done
2023-05-04 15:17:03,576 DEBUG   HandlerThread:2120561 [system_info.py:probe():240] Probing system done
2023-05-04 15:17:03,576 DEBUG   HandlerThread:2120561 [system_monitor.py:probe():210] {'os': 'Linux-5.15.0-56-generic-x86_64-with-glibc2.35', 'python': '3.10.9', 'heartbeatAt': '2023-05-04T13:17:03.547678', 'startedAt': '2023-05-04T13:17:02.578138', 'docker': None, 'cuda': None, 'args': (), 'state': 'running', 'program': '/home/honam/workspace/ode/pyur5/include/pyur5/plot.py', 'codePath': 'include/pyur5/plot.py', 'git': {'remote': 'git@gitlab.ethz.ch:honam/pyur5.git', 'commit': 'fa4b1f7cf3e257554c9814b4d18930505d555c6a'}, 'email': 'bizoffermark@gmail.com', 'root': '/home/honam/workspace/ode/pyur5', 'host': 'safari-proxy', 'username': 'honam', 'executable': '/home/honam/anaconda3/envs/ode/bin/python', 'cpu_count': 24, 'cpu_count_logical': 48, 'cpu_freq': {'current': 1.0854166666666667, 'min': 1000.0, 'max': 3200.0}, 'cpu_freq_per_core': [{'current': 1.0, 'min': 1000.0, 'max': 3200.0}, {'current': 1.0, 'min': 1000.0, 'max': 3200.0}, {'current': 1.0, 'min': 1000.0, 'max': 3200.0}, {'current': 1.0, 'min': 1000.0, 'max': 3200.0}, {'current': 1.0, 'min': 1000.0, 'max': 3200.0}, {'current': 1.0, 'min': 1000.0, 'max': 3200.0}, {'current': 1.0, 'min': 1000.0, 'max': 3200.0}, {'current': 1.0, 'min': 1000.0, 'max': 3200.0}, {'current': 1.0, 'min': 1000.0, 'max': 3200.0}, {'current': 1.0, 'min': 1000.0, 'max': 3200.0}, {'current': 1.0, 'min': 1000.0, 'max': 3200.0}, {'current': 1.0, 'min': 1000.0, 'max': 3200.0}, {'current': 1.0, 'min': 1000.0, 'max': 3200.0}, {'current': 1.1, 'min': 1000.0, 'max': 3200.0}, {'current': 1.0, 'min': 1000.0, 'max': 3200.0}, {'current': 2.0, 'min': 1000.0, 'max': 3200.0}, {'current': 1.0, 'min': 1000.0, 'max': 3200.0}, {'current': 1.042, 'min': 1000.0, 'max': 3200.0}, {'current': 1.0, 'min': 1000.0, 'max': 3200.0}, {'current': 1.0, 'min': 1000.0, 'max': 3200.0}, {'current': 1.0, 'min': 1000.0, 'max': 3200.0}, {'current': 1.0, 'min': 1000.0, 'max': 3200.0}, {'current': 1.0, 'min': 1000.0, 'max': 3200.0}, {'current': 1.0, 'min': 1000.0, 'max': 3200.0}, {'current': 1.0, 'min': 1000.0, 'max': 3200.0}, {'current': 1.0, 'min': 1000.0, 'max': 3200.0}, {'current': 1.0, 'min': 1000.0, 'max': 3200.0}, {'current': 1.0, 'min': 1000.0, 'max': 3200.0}, {'current': 1.0, 'min': 1000.0, 'max': 3200.0}, {'current': 1.0, 'min': 1000.0, 'max': 3200.0}, {'current': 1.0, 'min': 1000.0, 'max': 3200.0}, {'current': 1.0, 'min': 1000.0, 'max': 3200.0}, {'current': 1.0, 'min': 1000.0, 'max': 3200.0}, {'current': 1.0, 'min': 1000.0, 'max': 3200.0}, {'current': 1.0, 'min': 1000.0, 'max': 3200.0}, {'current': 1.0, 'min': 1000.0, 'max': 3200.0}, {'current': 1.0, 'min': 1000.0, 'max': 3200.0}, {'current': 1.0, 'min': 1000.0, 'max': 3200.0}, {'current': 1.0, 'min': 1000.0, 'max': 3200.0}, {'current': 1.0, 'min': 1000.0, 'max': 3200.0}, {'current': 1.0, 'min': 1000.0, 'max': 3200.0}, {'current': 1.0, 'min': 1000.0, 'max': 3200.0}, {'current': 1.0, 'min': 1000.0, 'max': 3200.0}, {'current': 1.0, 'min': 1000.0, 'max': 3200.0}, {'current': 1.0, 'min': 1000.0, 'max': 3200.0}, {'current': 1.0, 'min': 1000.0, 'max': 3200.0}, {'current': 1.0, 'min': 1000.0, 'max': 3200.0}, {'current': 1.0, 'min': 1000.0, 'max': 3200.0}], 'disk': {'total': 878.1531105041504, 'used': 219.6766700744629}, 'memory': {'total': 187.47517776489258}}
2023-05-04 15:17:03,576 INFO    HandlerThread:2120561 [system_monitor.py:probe():211] Finished collecting system info
2023-05-04 15:17:03,576 INFO    HandlerThread:2120561 [system_monitor.py:probe():214] Publishing system info
2023-05-04 15:17:03,576 DEBUG   HandlerThread:2120561 [system_info.py:_save_pip():51] Saving list of pip packages installed into the current environment
2023-05-04 15:17:03,657 DEBUG   HandlerThread:2120561 [system_info.py:_save_pip():67] Saving pip packages done
2023-05-04 15:17:03,657 DEBUG   HandlerThread:2120561 [system_info.py:_save_conda():74] Saving list of conda packages installed into the current environment
2023-05-04 15:17:04,300 INFO    Thread-12 :2120561 [dir_watcher.py:_on_file_created():278] file/dir created: /home/honam/workspace/ode/pyur5/include/pyur5/wandb/run-20230504_151702-apf0iem9/files/conda-environment.yaml
2023-05-04 15:17:04,301 INFO    Thread-12 :2120561 [dir_watcher.py:_on_file_created():278] file/dir created: /home/honam/workspace/ode/pyur5/include/pyur5/wandb/run-20230504_151702-apf0iem9/files/wandb-summary.json
2023-05-04 15:17:04,301 INFO    Thread-12 :2120561 [dir_watcher.py:_on_file_created():278] file/dir created: /home/honam/workspace/ode/pyur5/include/pyur5/wandb/run-20230504_151702-apf0iem9/files/requirements.txt
2023-05-04 15:17:31,318 INFO    Thread-12 :2120561 [dir_watcher.py:_on_file_modified():295] file/dir modified: /home/honam/workspace/ode/pyur5/include/pyur5/wandb/run-20230504_151702-apf0iem9/files/conda-environment.yaml
2023-05-04 15:17:31,697 DEBUG   HandlerThread:2120561 [system_info.py:_save_conda():86] Saving conda packages done
2023-05-04 15:17:31,701 INFO    HandlerThread:2120561 [system_monitor.py:probe():216] Finished publishing system info
2023-05-04 15:17:31,723 DEBUG   HandlerThread:2120561 [handler.py:handle_request():144] handle_request: status_report
2023-05-04 15:17:31,723 DEBUG   HandlerThread:2120561 [handler.py:handle_request():144] handle_request: keepalive
2023-05-04 15:17:31,724 DEBUG   HandlerThread:2120561 [handler.py:handle_request():144] handle_request: status_report
2023-05-04 15:17:31,724 DEBUG   HandlerThread:2120561 [handler.py:handle_request():144] handle_request: keepalive
2023-05-04 15:17:31,725 DEBUG   HandlerThread:2120561 [handler.py:handle_request():144] handle_request: status_report
2023-05-04 15:17:31,725 DEBUG   HandlerThread:2120561 [handler.py:handle_request():144] handle_request: keepalive
2023-05-04 15:17:31,725 DEBUG   HandlerThread:2120561 [handler.py:handle_request():144] handle_request: status_report
2023-05-04 15:17:31,726 DEBUG   HandlerThread:2120561 [handler.py:handle_request():144] handle_request: keepalive
2023-05-04 15:17:31,726 DEBUG   HandlerThread:2120561 [handler.py:handle_request():144] handle_request: status_report
2023-05-04 15:17:31,726 DEBUG   HandlerThread:2120561 [handler.py:handle_request():144] handle_request: keepalive
2023-05-04 15:17:31,727 DEBUG   SenderThread:2120561 [sender.py:send():375] send: files
2023-05-04 15:17:31,727 INFO    SenderThread:2120561 [sender.py:_save_file():1378] saving file wandb-metadata.json with policy now
2023-05-04 15:17:31,751 DEBUG   HandlerThread:2120561 [handler.py:handle_request():144] handle_request: stop_status
2023-05-04 15:17:31,752 DEBUG   SenderThread:2120561 [sender.py:send_request():402] send_request: stop_status
2023-05-04 15:17:32,010 DEBUG   SenderThread:2120561 [sender.py:send():375] send: telemetry
2023-05-04 15:17:32,243 INFO    wandb-upload_0:2120561 [upload_job.py:push():137] Uploaded file /tmp/tmpy2r7f0a9wandb/7q87sk11-wandb-metadata.json
2023-05-04 15:17:32,319 INFO    Thread-12 :2120561 [dir_watcher.py:_on_file_created():278] file/dir created: /home/honam/workspace/ode/pyur5/include/pyur5/wandb/run-20230504_151702-apf0iem9/files/output.log
2023-05-04 15:17:32,320 INFO    Thread-12 :2120561 [dir_watcher.py:_on_file_created():278] file/dir created: /home/honam/workspace/ode/pyur5/include/pyur5/wandb/run-20230504_151702-apf0iem9/files/wandb-metadata.json
2023-05-04 15:17:33,683 DEBUG   HandlerThread:2120561 [handler.py:handle_request():144] handle_request: status_report
2023-05-04 15:17:34,321 INFO    Thread-12 :2120561 [dir_watcher.py:_on_file_modified():295] file/dir modified: /home/honam/workspace/ode/pyur5/include/pyur5/wandb/run-20230504_151702-apf0iem9/files/output.log
2023-05-04 15:17:34,321 INFO    Thread-12 :2120561 [dir_watcher.py:_on_file_modified():295] file/dir modified: /home/honam/workspace/ode/pyur5/include/pyur5/wandb/run-20230504_151702-apf0iem9/files/config.yaml
2023-05-04 15:17:38,330 DEBUG   SenderThread:2120561 [sender.py:send():375] send: files
2023-05-04 15:17:38,330 INFO    SenderThread:2120561 [sender.py:_save_file():1378] saving file media/images/plot_0_387e601cc15a30ce7dbd.png with policy now
2023-05-04 15:17:38,331 DEBUG   HandlerThread:2120561 [handler.py:handle_request():144] handle_request: partial_history
2023-05-04 15:17:38,336 DEBUG   SenderThread:2120561 [sender.py:send():375] send: history
2023-05-04 15:17:38,337 DEBUG   SenderThread:2120561 [sender.py:send_request():402] send_request: summary_record
2023-05-04 15:17:38,342 INFO    SenderThread:2120561 [sender.py:_save_file():1378] saving file wandb-summary.json with policy end
2023-05-04 15:17:38,343 DEBUG   SenderThread:2120561 [sender.py:send():375] send: telemetry
2023-05-04 15:17:38,343 DEBUG   SenderThread:2120561 [sender.py:send():375] send: exit
2023-05-04 15:17:38,343 INFO    SenderThread:2120561 [sender.py:send_exit():598] handling exit code: 0
2023-05-04 15:17:38,344 INFO    SenderThread:2120561 [sender.py:send_exit():600] handling runtime: 34
2023-05-04 15:17:38,345 INFO    SenderThread:2120561 [sender.py:_save_file():1378] saving file wandb-summary.json with policy end
2023-05-04 15:17:38,346 INFO    SenderThread:2120561 [sender.py:send_exit():606] send defer
2023-05-04 15:17:38,346 DEBUG   HandlerThread:2120561 [handler.py:handle_request():144] handle_request: defer
2023-05-04 15:17:38,346 INFO    HandlerThread:2120561 [handler.py:handle_request_defer():170] handle defer: 0
2023-05-04 15:17:38,347 DEBUG   SenderThread:2120561 [sender.py:send_request():402] send_request: defer
2023-05-04 15:17:38,347 INFO    SenderThread:2120561 [sender.py:send_request_defer():622] handle sender defer: 0
2023-05-04 15:17:38,347 INFO    SenderThread:2120561 [sender.py:transition_state():626] send defer: 1
2023-05-04 15:17:38,358 DEBUG   HandlerThread:2120561 [handler.py:handle_request():144] handle_request: defer
2023-05-04 15:17:38,358 INFO    HandlerThread:2120561 [handler.py:handle_request_defer():170] handle defer: 1
2023-05-04 15:17:38,360 DEBUG   SenderThread:2120561 [sender.py:send_request():402] send_request: defer
2023-05-04 15:17:38,360 INFO    SenderThread:2120561 [sender.py:send_request_defer():622] handle sender defer: 1
2023-05-04 15:17:38,360 INFO    SenderThread:2120561 [sender.py:transition_state():626] send defer: 2
2023-05-04 15:17:38,361 DEBUG   HandlerThread:2120561 [handler.py:handle_request():144] handle_request: defer
2023-05-04 15:17:38,361 INFO    HandlerThread:2120561 [handler.py:handle_request_defer():170] handle defer: 2
2023-05-04 15:17:38,361 INFO    HandlerThread:2120561 [system_monitor.py:finish():190] Stopping system monitor
2023-05-04 15:17:38,361 DEBUG   SystemMonitor:2120561 [system_monitor.py:_start():159] Starting system metrics aggregation loop
2023-05-04 15:17:38,361 DEBUG   SystemMonitor:2120561 [system_monitor.py:_start():166] Finished system metrics aggregation loop
2023-05-04 15:17:38,361 DEBUG   SystemMonitor:2120561 [system_monitor.py:_start():170] Publishing last batch of metrics
2023-05-04 15:17:38,364 INFO    HandlerThread:2120561 [interfaces.py:finish():202] Joined cpu monitor
2023-05-04 15:17:38,365 INFO    HandlerThread:2120561 [interfaces.py:finish():202] Joined disk monitor
2023-05-04 15:17:38,365 INFO    HandlerThread:2120561 [interfaces.py:finish():202] Joined memory monitor
2023-05-04 15:17:38,366 INFO    HandlerThread:2120561 [interfaces.py:finish():202] Joined network monitor
2023-05-04 15:17:38,367 DEBUG   SenderThread:2120561 [sender.py:send_request():402] send_request: defer
2023-05-04 15:17:38,367 INFO    SenderThread:2120561 [sender.py:send_request_defer():622] handle sender defer: 2
2023-05-04 15:17:38,367 INFO    SenderThread:2120561 [sender.py:transition_state():626] send defer: 3
2023-05-04 15:17:38,367 DEBUG   SenderThread:2120561 [sender.py:send():375] send: stats
2023-05-04 15:17:38,367 DEBUG   HandlerThread:2120561 [handler.py:handle_request():144] handle_request: defer
2023-05-04 15:17:38,368 INFO    HandlerThread:2120561 [handler.py:handle_request_defer():170] handle defer: 3
2023-05-04 15:17:38,369 DEBUG   SenderThread:2120561 [sender.py:send_request():402] send_request: defer
2023-05-04 15:17:38,369 INFO    SenderThread:2120561 [sender.py:send_request_defer():622] handle sender defer: 3
2023-05-04 15:17:38,369 INFO    SenderThread:2120561 [sender.py:transition_state():626] send defer: 4
2023-05-04 15:17:38,369 DEBUG   HandlerThread:2120561 [handler.py:handle_request():144] handle_request: defer
2023-05-04 15:17:38,369 INFO    HandlerThread:2120561 [handler.py:handle_request_defer():170] handle defer: 4
2023-05-04 15:17:38,370 DEBUG   SenderThread:2120561 [sender.py:send_request():402] send_request: defer
2023-05-04 15:17:38,370 INFO    SenderThread:2120561 [sender.py:send_request_defer():622] handle sender defer: 4
2023-05-04 15:17:38,370 INFO    SenderThread:2120561 [sender.py:transition_state():626] send defer: 5
2023-05-04 15:17:38,370 DEBUG   HandlerThread:2120561 [handler.py:handle_request():144] handle_request: defer
2023-05-04 15:17:38,371 INFO    HandlerThread:2120561 [handler.py:handle_request_defer():170] handle defer: 5
2023-05-04 15:17:38,372 DEBUG   SenderThread:2120561 [sender.py:send():375] send: summary
2023-05-04 15:17:38,373 INFO    SenderThread:2120561 [sender.py:_save_file():1378] saving file wandb-summary.json with policy end
2023-05-04 15:17:38,374 DEBUG   SenderThread:2120561 [sender.py:send_request():402] send_request: defer
2023-05-04 15:17:38,374 INFO    SenderThread:2120561 [sender.py:send_request_defer():622] handle sender defer: 5
2023-05-04 15:17:38,374 INFO    SenderThread:2120561 [sender.py:transition_state():626] send defer: 6
2023-05-04 15:17:38,374 DEBUG   HandlerThread:2120561 [handler.py:handle_request():144] handle_request: defer
2023-05-04 15:17:38,374 INFO    HandlerThread:2120561 [handler.py:handle_request_defer():170] handle defer: 6
2023-05-04 15:17:38,375 DEBUG   SenderThread:2120561 [sender.py:send_request():402] send_request: defer
2023-05-04 15:17:38,375 INFO    SenderThread:2120561 [sender.py:send_request_defer():622] handle sender defer: 6
2023-05-04 15:17:38,380 DEBUG   HandlerThread:2120561 [handler.py:handle_request():144] handle_request: status_report
2023-05-04 15:17:38,578 INFO    SenderThread:2120561 [sender.py:transition_state():626] send defer: 7
2023-05-04 15:17:38,578 DEBUG   HandlerThread:2120561 [handler.py:handle_request():144] handle_request: defer
2023-05-04 15:17:38,578 INFO    HandlerThread:2120561 [handler.py:handle_request_defer():170] handle defer: 7
2023-05-04 15:17:38,579 DEBUG   SenderThread:2120561 [sender.py:send_request():402] send_request: defer
2023-05-04 15:17:38,579 INFO    SenderThread:2120561 [sender.py:send_request_defer():622] handle sender defer: 7
2023-05-04 15:17:38,832 INFO    wandb-upload_0:2120561 [upload_job.py:push():137] Uploaded file /tmp/tmpy2r7f0a9wandb/w2ggblyp-media/images/plot_0_387e601cc15a30ce7dbd.png
2023-05-04 15:17:39,327 INFO    Thread-12 :2120561 [dir_watcher.py:_on_file_modified():295] file/dir modified: /home/honam/workspace/ode/pyur5/include/pyur5/wandb/run-20230504_151702-apf0iem9/files/wandb-summary.json
2023-05-04 15:17:39,328 INFO    Thread-12 :2120561 [dir_watcher.py:_on_file_modified():295] file/dir modified: /home/honam/workspace/ode/pyur5/include/pyur5/wandb/run-20230504_151702-apf0iem9/files/config.yaml
2023-05-04 15:17:39,328 INFO    Thread-12 :2120561 [dir_watcher.py:_on_file_created():278] file/dir created: /home/honam/workspace/ode/pyur5/include/pyur5/wandb/run-20230504_151702-apf0iem9/files/media/images/plot_0_387e601cc15a30ce7dbd.png
2023-05-04 15:17:39,329 INFO    Thread-12 :2120561 [dir_watcher.py:_on_file_created():278] file/dir created: /home/honam/workspace/ode/pyur5/include/pyur5/wandb/run-20230504_151702-apf0iem9/files/media/images
2023-05-04 15:17:39,330 INFO    Thread-12 :2120561 [dir_watcher.py:_on_file_created():278] file/dir created: /home/honam/workspace/ode/pyur5/include/pyur5/wandb/run-20230504_151702-apf0iem9/files/media
2023-05-04 15:17:39,341 DEBUG   HandlerThread:2120561 [handler.py:handle_request():144] handle_request: poll_exit
2023-05-04 15:17:39,839 INFO    wandb-upload_0:2120561 [upload_job.py:push():137] Uploaded file /tmp/tmpy2r7f0a9wandb/wyuhqhwq-media/images/plot_0_387e601cc15a30ce7dbd.png
2023-05-04 15:17:40,036 INFO    SenderThread:2120561 [sender.py:transition_state():626] send defer: 8
2023-05-04 15:17:40,036 DEBUG   SenderThread:2120561 [sender.py:send_request():402] send_request: poll_exit
2023-05-04 15:17:40,037 DEBUG   HandlerThread:2120561 [handler.py:handle_request():144] handle_request: defer
2023-05-04 15:17:40,037 INFO    HandlerThread:2120561 [handler.py:handle_request_defer():170] handle defer: 8
2023-05-04 15:17:40,038 DEBUG   SenderThread:2120561 [sender.py:send_request():402] send_request: defer
2023-05-04 15:17:40,038 INFO    SenderThread:2120561 [sender.py:send_request_defer():622] handle sender defer: 8
2023-05-04 15:17:40,038 INFO    SenderThread:2120561 [sender.py:transition_state():626] send defer: 9
2023-05-04 15:17:40,038 DEBUG   HandlerThread:2120561 [handler.py:handle_request():144] handle_request: defer
2023-05-04 15:17:40,039 INFO    HandlerThread:2120561 [handler.py:handle_request_defer():170] handle defer: 9
2023-05-04 15:17:40,039 DEBUG   SenderThread:2120561 [sender.py:send_request():402] send_request: defer
2023-05-04 15:17:40,039 INFO    SenderThread:2120561 [sender.py:send_request_defer():622] handle sender defer: 9
2023-05-04 15:17:40,039 INFO    SenderThread:2120561 [dir_watcher.py:finish():365] shutting down directory watcher
2023-05-04 15:17:40,329 INFO    Thread-12 :2120561 [dir_watcher.py:_on_file_modified():295] file/dir modified: /home/honam/workspace/ode/pyur5/include/pyur5/wandb/run-20230504_151702-apf0iem9/files/output.log
2023-05-04 15:17:40,331 INFO    SenderThread:2120561 [dir_watcher.py:finish():395] scan: /home/honam/workspace/ode/pyur5/include/pyur5/wandb/run-20230504_151702-apf0iem9/files
2023-05-04 15:17:40,331 INFO    SenderThread:2120561 [dir_watcher.py:finish():409] scan save: /home/honam/workspace/ode/pyur5/include/pyur5/wandb/run-20230504_151702-apf0iem9/files/config.yaml config.yaml
2023-05-04 15:17:40,332 INFO    SenderThread:2120561 [dir_watcher.py:finish():409] scan save: /home/honam/workspace/ode/pyur5/include/pyur5/wandb/run-20230504_151702-apf0iem9/files/wandb-summary.json wandb-summary.json
2023-05-04 15:17:40,342 INFO    SenderThread:2120561 [dir_watcher.py:finish():409] scan save: /home/honam/workspace/ode/pyur5/include/pyur5/wandb/run-20230504_151702-apf0iem9/files/requirements.txt requirements.txt
2023-05-04 15:17:40,342 DEBUG   HandlerThread:2120561 [handler.py:handle_request():144] handle_request: poll_exit
2023-05-04 15:17:40,351 INFO    SenderThread:2120561 [dir_watcher.py:finish():409] scan save: /home/honam/workspace/ode/pyur5/include/pyur5/wandb/run-20230504_151702-apf0iem9/files/conda-environment.yaml conda-environment.yaml
2023-05-04 15:17:40,357 INFO    SenderThread:2120561 [dir_watcher.py:finish():409] scan save: /home/honam/workspace/ode/pyur5/include/pyur5/wandb/run-20230504_151702-apf0iem9/files/wandb-metadata.json wandb-metadata.json
2023-05-04 15:17:40,359 INFO    SenderThread:2120561 [dir_watcher.py:finish():409] scan save: /home/honam/workspace/ode/pyur5/include/pyur5/wandb/run-20230504_151702-apf0iem9/files/output.log output.log
2023-05-04 15:17:40,374 INFO    SenderThread:2120561 [dir_watcher.py:finish():409] scan save: /home/honam/workspace/ode/pyur5/include/pyur5/wandb/run-20230504_151702-apf0iem9/files/media/images/plot_0_387e601cc15a30ce7dbd.png media/images/plot_0_387e601cc15a30ce7dbd.png
2023-05-04 15:17:40,374 INFO    SenderThread:2120561 [sender.py:transition_state():626] send defer: 10
2023-05-04 15:17:40,375 DEBUG   SenderThread:2120561 [sender.py:send_request():402] send_request: poll_exit
2023-05-04 15:17:40,375 DEBUG   HandlerThread:2120561 [handler.py:handle_request():144] handle_request: defer
2023-05-04 15:17:40,375 INFO    HandlerThread:2120561 [handler.py:handle_request_defer():170] handle defer: 10
2023-05-04 15:17:40,376 DEBUG   SenderThread:2120561 [sender.py:send_request():402] send_request: defer
2023-05-04 15:17:40,377 INFO    SenderThread:2120561 [sender.py:send_request_defer():622] handle sender defer: 10
2023-05-04 15:17:40,377 INFO    SenderThread:2120561 [file_pusher.py:finish():168] shutting down file pusher
2023-05-04 15:17:40,796 INFO    wandb-upload_0:2120561 [upload_job.py:push():137] Uploaded file /home/honam/workspace/ode/pyur5/include/pyur5/wandb/run-20230504_151702-apf0iem9/files/config.yaml
2023-05-04 15:17:40,862 INFO    wandb-upload_1:2120561 [upload_job.py:push():137] Uploaded file /home/honam/workspace/ode/pyur5/include/pyur5/wandb/run-20230504_151702-apf0iem9/files/wandb-summary.json
2023-05-04 15:17:40,941 INFO    wandb-upload_3:2120561 [upload_job.py:push():137] Uploaded file /home/honam/workspace/ode/pyur5/include/pyur5/wandb/run-20230504_151702-apf0iem9/files/conda-environment.yaml
2023-05-04 15:17:40,949 INFO    wandb-upload_2:2120561 [upload_job.py:push():137] Uploaded file /home/honam/workspace/ode/pyur5/include/pyur5/wandb/run-20230504_151702-apf0iem9/files/requirements.txt
2023-05-04 15:17:40,956 INFO    wandb-upload_4:2120561 [upload_job.py:push():137] Uploaded file /home/honam/workspace/ode/pyur5/include/pyur5/wandb/run-20230504_151702-apf0iem9/files/output.log
2023-05-04 15:17:41,156 INFO    Thread-11 (_thread_body):2120561 [sender.py:transition_state():626] send defer: 11
2023-05-04 15:17:41,157 DEBUG   HandlerThread:2120561 [handler.py:handle_request():144] handle_request: defer
2023-05-04 15:17:41,157 INFO    HandlerThread:2120561 [handler.py:handle_request_defer():170] handle defer: 11
2023-05-04 15:17:41,158 DEBUG   SenderThread:2120561 [sender.py:send_request():402] send_request: defer
2023-05-04 15:17:41,158 INFO    SenderThread:2120561 [sender.py:send_request_defer():622] handle sender defer: 11
2023-05-04 15:17:41,158 INFO    SenderThread:2120561 [file_pusher.py:join():173] waiting for file pusher
2023-05-04 15:17:41,158 INFO    SenderThread:2120561 [sender.py:transition_state():626] send defer: 12
2023-05-04 15:17:41,159 DEBUG   HandlerThread:2120561 [handler.py:handle_request():144] handle_request: defer
2023-05-04 15:17:41,159 INFO    HandlerThread:2120561 [handler.py:handle_request_defer():170] handle defer: 12
2023-05-04 15:17:41,159 DEBUG   SenderThread:2120561 [sender.py:send_request():402] send_request: defer
2023-05-04 15:17:41,159 INFO    SenderThread:2120561 [sender.py:send_request_defer():622] handle sender defer: 12
2023-05-04 15:17:41,335 DEBUG   HandlerThread:2120561 [handler.py:handle_request():144] handle_request: poll_exit
2023-05-04 15:17:41,520 INFO    SenderThread:2120561 [sender.py:transition_state():626] send defer: 13
2023-05-04 15:17:41,520 DEBUG   SenderThread:2120561 [sender.py:send_request():402] send_request: poll_exit
2023-05-04 15:17:41,520 DEBUG   HandlerThread:2120561 [handler.py:handle_request():144] handle_request: defer
2023-05-04 15:17:41,521 INFO    HandlerThread:2120561 [handler.py:handle_request_defer():170] handle defer: 13
2023-05-04 15:17:41,522 DEBUG   SenderThread:2120561 [sender.py:send_request():402] send_request: defer
2023-05-04 15:17:41,522 INFO    SenderThread:2120561 [sender.py:send_request_defer():622] handle sender defer: 13
2023-05-04 15:17:41,522 INFO    SenderThread:2120561 [sender.py:transition_state():626] send defer: 14
2023-05-04 15:17:41,523 DEBUG   HandlerThread:2120561 [handler.py:handle_request():144] handle_request: defer
2023-05-04 15:17:41,523 DEBUG   SenderThread:2120561 [sender.py:send():375] send: final
2023-05-04 15:17:41,523 INFO    HandlerThread:2120561 [handler.py:handle_request_defer():170] handle defer: 14
2023-05-04 15:17:41,523 DEBUG   SenderThread:2120561 [sender.py:send():375] send: footer
2023-05-04 15:17:41,524 DEBUG   SenderThread:2120561 [sender.py:send_request():402] send_request: defer
2023-05-04 15:17:41,524 INFO    SenderThread:2120561 [sender.py:send_request_defer():622] handle sender defer: 14
2023-05-04 15:17:41,525 DEBUG   HandlerThread:2120561 [handler.py:handle_request():144] handle_request: poll_exit
2023-05-04 15:17:41,526 DEBUG   HandlerThread:2120561 [handler.py:handle_request():144] handle_request: server_info
2023-05-04 15:17:41,526 DEBUG   HandlerThread:2120561 [handler.py:handle_request():144] handle_request: get_summary
2023-05-04 15:17:41,526 DEBUG   SenderThread:2120561 [sender.py:send_request():402] send_request: poll_exit
2023-05-04 15:17:41,528 DEBUG   HandlerThread:2120561 [handler.py:handle_request():144] handle_request: sampled_history
2023-05-04 15:17:41,528 DEBUG   SenderThread:2120561 [sender.py:send_request():402] send_request: server_info
2023-05-04 15:17:41,820 DEBUG   HandlerThread:2120561 [handler.py:handle_request():144] handle_request: shutdown
2023-05-04 15:17:41,821 INFO    HandlerThread:2120561 [handler.py:finish():845] shutting down handler
2023-05-04 15:17:42,527 INFO    WriterThread:2120561 [datastore.py:close():298] close: /home/honam/workspace/ode/pyur5/include/pyur5/wandb/run-20230504_151702-apf0iem9/run-apf0iem9.wandb
2023-05-04 15:17:42,819 INFO    SenderThread:2120561 [sender.py:finish():1550] shutting down sender
2023-05-04 15:17:42,820 INFO    SenderThread:2120561 [file_pusher.py:finish():168] shutting down file pusher
2023-05-04 15:17:42,820 INFO    SenderThread:2120561 [file_pusher.py:join():173] waiting for file pusher
