{
    "os": "Linux-5.15.0-56-generic-x86_64-with-glibc2.35",
    "python": "3.10.9",
    "heartbeatAt": "2023-05-04T12:46:50.423801",
    "startedAt": "2023-05-04T12:46:49.500544",
    "docker": null,
    "cuda": null,
    "args": [],
    "state": "running",
    "program": "/home/honam/workspace/ode/pyur5/include/pyur5/plot.py",
    "codePath": "include/pyur5/plot.py",
    "git": {
        "remote": "git@gitlab.ethz.ch:honam/pyur5.git",
        "commit": "6d6b0bf6cc73a9cde0bfaad717dba8191866bdeb"
    },
    "email": "bizoffermark@gmail.com",
    "root": "/home/honam/workspace/ode/pyur5",
    "host": "safari-proxy",
    "username": "honam",
    "executable": "/home/honam/anaconda3/envs/ode/bin/python",
    "cpu_count": 24,
    "cpu_count_logical": 48,
    "cpu_freq": {
        "current": 1.1062291666666668,
        "min": 1000.0,
        "max": 3200.0
    },
    "cpu_freq_per_core": [
        {
            "current": 1.0,
            "min": 1000.0,
            "max": 3200.0
        },
        {
            "current": 1.0,
            "min": 1000.0,
            "max": 3200.0
        },
        {
            "current": 1.0,
            "min": 1000.0,
            "max": 3200.0
        },
        {
            "current": 1.0,
            "min": 1000.0,
            "max": 3200.0
        },
        {
            "current": 1.0,
            "min": 1000.0,
            "max": 3200.0
        },
        {
            "current": 2.1,
            "min": 1000.0,
            "max": 3200.0
        },
        {
            "current": 1.0,
            "min": 1000.0,
            "max": 3200.0
        },
        {
            "current": 1.0,
            "min": 1000.0,
            "max": 3200.0
        },
        {
            "current": 1.0,
            "min": 1000.0,
            "max": 3200.0
        },
        {
            "current": 1.0,
            "min": 1000.0,
            "max": 3200.0
        },
        {
            "current": 1.0,
            "min": 1000.0,
            "max": 3200.0
        },
        {
            "current": 1.0,
            "min": 1000.0,
            "max": 3200.0
        },
        {
            "current": 1.0,
            "min": 1000.0,
            "max": 3200.0
        },
        {
            "current": 2.0,
            "min": 1000.0,
            "max": 3200.0
        },
        {
            "current": 1.0,
            "min": 1000.0,
            "max": 3200.0
        },
        {
            "current": 2.0,
            "min": 1000.0,
            "max": 3200.0
        },
        {
            "current": 1.0,
            "min": 1000.0,
            "max": 3200.0
        },
        {
            "current": 1.0,
            "min": 1000.0,
            "max": 3200.0
        },
        {
            "current": 1.0,
            "min": 1000.0,
            "max": 3200.0
        },
        {
            "current": 1.0,
            "min": 1000.0,
            "max": 3200.0
        },
        {
            "current": 1.0,
            "min": 1000.0,
            "max": 3200.0
        },
        {
            "current": 1.0,
            "min": 1000.0,
            "max": 3200.0
        },
        {
            "current": 1.0,
            "min": 1000.0,
            "max": 3200.0
        },
        {
            "current": 1.0,
            "min": 1000.0,
            "max": 3200.0
        },
        {
            "current": 1.0,
            "min": 1000.0,
            "max": 3200.0
        },
        {
            "current": 1.0,
            "min": 1000.0,
            "max": 3200.0
        },
        {
            "current": 1.0,
            "min": 1000.0,
            "max": 3200.0
        },
        {
            "current": 1.0,
            "min": 1000.0,
            "max": 3200.0
        },
        {
            "current": 1.0,
            "min": 1000.0,
            "max": 3200.0
        },
        {
            "current": 1.0,
            "min": 1000.0,
            "max": 3200.0
        },
        {
            "current": 1.0,
            "min": 1000.0,
            "max": 3200.0
        },
        {
            "current": 1.0,
            "min": 1000.0,
            "max": 3200.0
        },
        {
            "current": 1.0,
            "min": 1000.0,
            "max": 3200.0
        },
        {
            "current": 1.0,
            "min": 1000.0,
            "max": 3200.0
        },
        {
            "current": 1.0,
            "min": 1000.0,
            "max": 3200.0
        },
        {
            "current": 1.0,
            "min": 1000.0,
            "max": 3200.0
        },
        {
            "current": 1.0,
            "min": 1000.0,
            "max": 3200.0
        },
        {
            "current": 1.0,
            "min": 1000.0,
            "max": 3200.0
        },
        {
            "current": 1.0,
            "min": 1000.0,
            "max": 3200.0
        },
        {
            "current": 1.0,
            "min": 1000.0,
            "max": 3200.0
        },
        {
            "current": 1.0,
            "min": 1000.0,
            "max": 3200.0
        },
        {
            "current": 1.0,
            "min": 1000.0,
            "max": 3200.0
        },
        {
            "current": 1.0,
            "min": 1000.0,
            "max": 3200.0
        },
        {
            "current": 1.0,
            "min": 1000.0,
            "max": 3200.0
        },
        {
            "current": 1.0,
            "min": 1000.0,
            "max": 3200.0
        },
        {
            "current": 1.117,
            "min": 1000.0,
            "max": 3200.0
        },
        {
            "current": 1.0,
            "min": 1000.0,
            "max": 3200.0
        },
        {
            "current": 1.0,
            "min": 1000.0,
            "max": 3200.0
        }
    ],
    "disk": {
        "total": 878.1531105041504,
        "used": 219.67664337158203
    },
    "memory": {
        "total": 187.47517776489258
    }
}
