2023-05-19 01:06:30,582 INFO    Thread-16 (_run_job):689403 [wandb_setup.py:_flush():76] Configure stats pid to 689403
2023-05-19 01:06:30,583 INFO    Thread-16 (_run_job):689403 [wandb_setup.py:_flush():76] Loading settings from /home/honam/.config/wandb/settings
2023-05-19 01:06:30,583 INFO    Thread-16 (_run_job):689403 [wandb_setup.py:_flush():76] Loading settings from /home/honam/workspace/ode/pyur5/include/pyur5/tests/wandb/settings
2023-05-19 01:06:30,583 INFO    Thread-16 (_run_job):689403 [wandb_setup.py:_flush():76] Loading settings from environment variables: {'project': 'ur5_model_train', 'entity': 'bizoffermark', 'root_dir': '/home/honam/workspace/ode/pyur5/include/pyur5/tests', 'run_id': 'htnv3rb0', 'sweep_param_path': '/home/honam/workspace/ode/pyur5/include/pyur5/tests/wandb/sweep-8pz7nrx4/config-htnv3rb0.yaml', 'sweep_id': '8pz7nrx4'}
2023-05-19 01:06:30,583 INFO    Thread-16 (_run_job):689403 [wandb_setup.py:_flush():76] Applying setup settings: {'_disable_service': False}
2023-05-19 01:06:30,583 INFO    Thread-16 (_run_job):689403 [wandb_setup.py:_flush():76] Inferring run settings from compute environment: {'program_relpath': 'include/pyur5/tests/ensemble_test_ur5.py', 'program': '/home/honam/workspace/ode/pyur5/include/pyur5/tests/ensemble_test_ur5.py'}
2023-05-19 01:06:30,583 INFO    Thread-16 (_run_job):689403 [wandb_init.py:_log_setup():507] Logging user logs to /home/honam/workspace/ode/pyur5/include/pyur5/tests/wandb/run-20230519_010630-htnv3rb0/logs/debug.log
2023-05-19 01:06:30,583 INFO    Thread-16 (_run_job):689403 [wandb_init.py:_log_setup():508] Logging internal logs to /home/honam/workspace/ode/pyur5/include/pyur5/tests/wandb/run-20230519_010630-htnv3rb0/logs/debug-internal.log
2023-05-19 01:06:30,583 INFO    Thread-16 (_run_job):689403 [wandb_init.py:init():547] calling init triggers
2023-05-19 01:06:30,583 INFO    Thread-16 (_run_job):689403 [wandb_init.py:init():554] wandb.init called with sweep_config: {'features': [64], 'lr': 0.0005, 'n_layers': 3, 'num_ensemble': 10}
config: {}
2023-05-19 01:06:30,583 INFO    Thread-16 (_run_job):689403 [wandb_init.py:init():595] starting backend
2023-05-19 01:06:30,583 INFO    Thread-16 (_run_job):689403 [wandb_init.py:init():599] setting up manager
2023-05-19 01:06:30,594 INFO    Thread-16 (_run_job):689403 [backend.py:_multiprocessing_setup():106] multiprocessing start_methods=fork,spawn,forkserver, using: spawn
2023-05-19 01:06:30,605 INFO    Thread-16 (_run_job):689403 [wandb_init.py:init():605] backend started and connected
2023-05-19 01:06:30,610 INFO    Thread-16 (_run_job):689403 [wandb_run.py:_config_callback():1285] config_cb None None {'features': [64], 'lr': 0.0005, 'n_layers': 3, 'num_ensemble': 10}
2023-05-19 01:06:30,611 INFO    Thread-16 (_run_job):689403 [wandb_init.py:init():695] updated telemetry
2023-05-19 01:06:30,620 INFO    Thread-16 (_run_job):689403 [wandb_init.py:init():732] communicating run to backend with 60.0 second timeout
2023-05-19 01:06:31,027 INFO    Thread-16 (_run_job):689403 [wandb_run.py:_on_init():2176] communicating current version
2023-05-19 01:06:31,210 INFO    Thread-16 (_run_job):689403 [wandb_run.py:_on_init():2185] got version response upgrade_message: "wandb version 0.15.3 is available!  To upgrade, please run:\n $ pip install wandb --upgrade"

2023-05-19 01:06:31,210 INFO    Thread-16 (_run_job):689403 [wandb_init.py:init():782] starting run threads in backend
2023-05-19 01:06:36,799 INFO    Thread-16 (_run_job):689403 [wandb_run.py:_console_start():2157] atexit reg
2023-05-19 01:06:36,799 INFO    Thread-16 (_run_job):689403 [wandb_run.py:_redirect():2012] redirect: SettingsConsole.WRAP_RAW
2023-05-19 01:06:36,799 INFO    Thread-16 (_run_job):689403 [wandb_run.py:_redirect():2077] Wrapping output streams.
2023-05-19 01:06:36,799 INFO    Thread-16 (_run_job):689403 [wandb_run.py:_redirect():2102] Redirects installed.
2023-05-19 01:06:36,799 INFO    Thread-16 (_run_job):689403 [wandb_init.py:init():824] run started, returning control to user process
2023-05-19 01:07:21,741 INFO    Thread-16 (_run_job):689403 [wandb_run.py:_finish():1892] finishing run bizoffermark/ur5_model_train/htnv3rb0
2023-05-19 01:07:21,742 INFO    Thread-16 (_run_job):689403 [wandb_run.py:_atexit_cleanup():2126] got exitcode: 0
2023-05-19 01:07:21,742 INFO    Thread-16 (_run_job):689403 [wandb_run.py:_restore():2109] restore
2023-05-19 01:07:21,742 INFO    Thread-16 (_run_job):689403 [wandb_run.py:_restore():2115] restore done
2023-05-19 01:07:25,588 INFO    Thread-16 (_run_job):689403 [wandb_run.py:_footer_history_summary_info():3476] rendering history
2023-05-19 01:07:25,589 INFO    Thread-16 (_run_job):689403 [wandb_run.py:_footer_history_summary_info():3508] rendering summary
2023-05-19 01:07:25,595 INFO    Thread-16 (_run_job):689403 [wandb_run.py:_footer_sync_info():3434] logging synced files
