action_min [-2.]
action_max [2.]
model loaded
env reset
x of shape (3,) is : [-1.0000000e+00  1.2246469e-16  0.0000000e+00]
x of forward_traj:  [-1.0000000e+00  1.2246469e-16  0.0000000e+00]
u.shape (300, 1)
_cost_fn called!
shape of state:  (3,)
shape of action:  (1,)
(3,)
(1,)
sim_dynamics is True
x_next of dynamics_fn:  Traced<ShapedArray(float32[3])>with<DynamicJaxprTrace(level=1/0)>