2023-05-19 12:21:55,704 INFO    Thread-16 (_run_job):692698 [wandb_setup.py:_flush():76] Configure stats pid to 692698
2023-05-19 12:21:55,704 INFO    Thread-16 (_run_job):692698 [wandb_setup.py:_flush():76] Loading settings from /home/honam/.config/wandb/settings
2023-05-19 12:21:55,704 INFO    Thread-16 (_run_job):692698 [wandb_setup.py:_flush():76] Loading settings from /home/honam/workspace/ode/pyur5/include/pyur5/tests/wandb/settings
2023-05-19 12:21:55,704 INFO    Thread-16 (_run_job):692698 [wandb_setup.py:_flush():76] Loading settings from environment variables: {'project': 'ur5_model_train', 'entity': 'bizoffermark', 'root_dir': '/home/honam/workspace/ode/pyur5/include/pyur5/tests', 'run_id': 'lhqo11rt', 'sweep_param_path': '/home/honam/workspace/ode/pyur5/include/pyur5/tests/wandb/sweep-05vs1959/config-lhqo11rt.yaml', 'sweep_id': '05vs1959'}
2023-05-19 12:21:55,704 INFO    Thread-16 (_run_job):692698 [wandb_setup.py:_flush():76] Applying setup settings: {'_disable_service': False}
2023-05-19 12:21:55,704 INFO    Thread-16 (_run_job):692698 [wandb_setup.py:_flush():76] Inferring run settings from compute environment: {'program_relpath': 'include/pyur5/tests/ensemble_test_ur5.py', 'program': '/home/honam/workspace/ode/pyur5/include/pyur5/tests/ensemble_test_ur5.py'}
2023-05-19 12:21:55,704 INFO    Thread-16 (_run_job):692698 [wandb_init.py:_log_setup():507] Logging user logs to /home/honam/workspace/ode/pyur5/include/pyur5/tests/wandb/run-20230519_122155-lhqo11rt/logs/debug.log
2023-05-19 12:21:55,704 INFO    Thread-16 (_run_job):692698 [wandb_init.py:_log_setup():508] Logging internal logs to /home/honam/workspace/ode/pyur5/include/pyur5/tests/wandb/run-20230519_122155-lhqo11rt/logs/debug-internal.log
2023-05-19 12:21:55,704 INFO    Thread-16 (_run_job):692698 [wandb_init.py:init():547] calling init triggers
2023-05-19 12:21:55,704 INFO    Thread-16 (_run_job):692698 [wandb_init.py:init():554] wandb.init called with sweep_config: {'action_max': 0.5, 'features': [256], 'lr': 0.0005, 'n_layers': 4, 'num_ensemble': 10, 'use_cos': True}
config: {}
2023-05-19 12:21:55,705 INFO    Thread-16 (_run_job):692698 [wandb_init.py:init():595] starting backend
2023-05-19 12:21:55,705 INFO    Thread-16 (_run_job):692698 [wandb_init.py:init():599] setting up manager
2023-05-19 12:21:55,715 INFO    Thread-16 (_run_job):692698 [backend.py:_multiprocessing_setup():106] multiprocessing start_methods=fork,spawn,forkserver, using: spawn
2023-05-19 12:21:55,726 INFO    Thread-16 (_run_job):692698 [wandb_init.py:init():605] backend started and connected
2023-05-19 12:21:55,732 INFO    Thread-16 (_run_job):692698 [wandb_run.py:_config_callback():1285] config_cb None None {'action_max': 0.5, 'features': [256], 'lr': 0.0005, 'n_layers': 4, 'num_ensemble': 10, 'use_cos': True}
2023-05-19 12:21:55,733 INFO    Thread-16 (_run_job):692698 [wandb_init.py:init():695] updated telemetry
2023-05-19 12:21:55,745 INFO    Thread-16 (_run_job):692698 [wandb_init.py:init():732] communicating run to backend with 60.0 second timeout
2023-05-19 12:21:56,176 INFO    Thread-16 (_run_job):692698 [wandb_run.py:_on_init():2176] communicating current version
2023-05-19 12:21:56,336 INFO    Thread-16 (_run_job):692698 [wandb_run.py:_on_init():2185] got version response upgrade_message: "wandb version 0.15.3 is available!  To upgrade, please run:\n $ pip install wandb --upgrade"

2023-05-19 12:21:56,336 INFO    Thread-16 (_run_job):692698 [wandb_init.py:init():782] starting run threads in backend
2023-05-19 12:22:02,933 INFO    Thread-16 (_run_job):692698 [wandb_run.py:_console_start():2157] atexit reg
2023-05-19 12:22:02,934 INFO    Thread-16 (_run_job):692698 [wandb_run.py:_redirect():2012] redirect: SettingsConsole.WRAP_RAW
2023-05-19 12:22:02,934 INFO    Thread-16 (_run_job):692698 [wandb_run.py:_redirect():2077] Wrapping output streams.
2023-05-19 12:22:02,934 INFO    Thread-16 (_run_job):692698 [wandb_run.py:_redirect():2102] Redirects installed.
2023-05-19 12:22:02,934 INFO    Thread-16 (_run_job):692698 [wandb_init.py:init():824] run started, returning control to user process
2023-05-19 12:23:33,934 INFO    Thread-16 (_run_job):692698 [wandb_run.py:_finish():1892] finishing run bizoffermark/ur5_model_train/lhqo11rt
2023-05-19 12:23:33,935 INFO    Thread-16 (_run_job):692698 [wandb_run.py:_atexit_cleanup():2126] got exitcode: 0
2023-05-19 12:23:33,935 INFO    Thread-16 (_run_job):692698 [wandb_run.py:_restore():2109] restore
2023-05-19 12:23:33,935 INFO    Thread-16 (_run_job):692698 [wandb_run.py:_restore():2115] restore done
2023-05-19 12:23:38,250 INFO    Thread-16 (_run_job):692698 [wandb_run.py:_footer_history_summary_info():3476] rendering history
2023-05-19 12:23:38,251 INFO    Thread-16 (_run_job):692698 [wandb_run.py:_footer_history_summary_info():3508] rendering summary
2023-05-19 12:23:38,259 INFO    Thread-16 (_run_job):692698 [wandb_run.py:_footer_sync_info():3434] logging synced files
