{
    "os": "Linux-5.15.0-60-generic-x86_64-with-glibc2.35",
    "python": "3.10.9",
    "heartbeatAt": "2023-05-10T09:02:43.811527",
    "startedAt": "2023-05-10T09:02:42.886485",
    "docker": null,
    "cuda": null,
    "args": [],
    "state": "running",
    "program": "/home/honam/workspace/ode/pyur5/include/pyur5/plot.py",
    "codePath": "include/pyur5/plot.py",
    "git": {
        "remote": "git@gitlab.ethz.ch:honam/pyur5.git",
        "commit": "c05c8550c054ebd4a3d0e6681aaf039d6c040dbf"
    },
    "email": "bizoffermark@gmail.com",
    "root": "/home/honam/workspace/ode/pyur5",
    "host": "safari-gpu2",
    "username": "honam",
    "executable": "/home/honam/anaconda3/envs/ode/bin/python3",
    "cpu_count": 16,
    "cpu_count_logical": 24,
    "cpu_freq": {
        "current": 3.4171250000000004,
        "min": 800.0,
        "max": 4950.0
    },
    "cpu_freq_per_core": [
        {
            "current": 3.811,
            "min": 800.0,
            "max": 5300.0
        },
        {
            "current": 3.4,
            "min": 800.0,
            "max": 5300.0
        },
        {
            "current": 3.4,
            "min": 800.0,
            "max": 5300.0
        },
        {
            "current": 3.4,
            "min": 800.0,
            "max": 5300.0
        },
        {
            "current": 3.4,
            "min": 800.0,
            "max": 5300.0
        },
        {
            "current": 3.4,
            "min": 800.0,
            "max": 5300.0
        },
        {
            "current": 3.4,
            "min": 800.0,
            "max": 5300.0
        },
        {
            "current": 3.4,
            "min": 800.0,
            "max": 5300.0
        },
        {
            "current": 3.4,
            "min": 800.0,
            "max": 5400.0
        },
        {
            "current": 3.4,
            "min": 800.0,
            "max": 5400.0
        },
        {
            "current": 3.4,
            "min": 800.0,
            "max": 5400.0
        },
        {
            "current": 3.4,
            "min": 800.0,
            "max": 5400.0
        },
        {
            "current": 3.4,
            "min": 800.0,
            "max": 5300.0
        },
        {
            "current": 3.4,
            "min": 800.0,
            "max": 5300.0
        },
        {
            "current": 3.4,
            "min": 800.0,
            "max": 5300.0
        },
        {
            "current": 3.4,
            "min": 800.0,
            "max": 5300.0
        },
        {
            "current": 3.4,
            "min": 800.0,
            "max": 4200.0
        },
        {
            "current": 3.4,
            "min": 800.0,
            "max": 4200.0
        },
        {
            "current": 3.4,
            "min": 800.0,
            "max": 4200.0
        },
        {
            "current": 3.4,
            "min": 800.0,
            "max": 4200.0
        },
        {
            "current": 3.4,
            "min": 800.0,
            "max": 4200.0
        },
        {
            "current": 3.4,
            "min": 800.0,
            "max": 4200.0
        },
        {
            "current": 3.4,
            "min": 800.0,
            "max": 4200.0
        },
        {
            "current": 3.4,
            "min": 800.0,
            "max": 4200.0
        }
    ],
    "disk": {
        "total": 914.7823104858398,
        "used": 49.268775939941406
    },
    "gpu": "NVIDIA RTX A6000",
    "gpu_count": 1,
    "gpu_devices": [
        {
            "name": "NVIDIA RTX A6000",
            "memory_total": 51527024640
        }
    ],
    "memory": {
        "total": 125.57927703857422
    }
}
